Name,customer id,address,day of week
Billy Jones,1,Flat 81u Scott manors Stewartfurt Herefordshire B8 2FQ,Tue
Jane Berry,2,Studio 78 Charlene green Irenemouth Buckinghamshire TF2A 5YF,Thu
Nigel Stevens,3,Flat 73d Ashleigh harbors Wilsonville Clackmannanshire LL17 4HP,Wed
Rebecca Marshall,4,Flat 9 Linda track Traceyport Cambridgeshire B1 1QD,Wed
Lindsey Jones-Johnson,5,Flat 03 Townsend road Ashleyhaven Surrey CV5B 9AF,Wed
Callum Davies,6,Studio 6 Shaun union West Albertside Caithness S58 1XR,Thu
Carole Power,7,Flat 24x Wilson forges South Amy Herefordshire S6K 4WH,Tue
Nicholas Hill,8,Flat 25y Christine alley Port Rogerstad Antrim NW2P 5DY,Mon
Mr. Stephen Williams,9,70 Julian drive Vincentchester Kincardineshire W28 3GE,Mon
Francesca Pollard,10,004 Tracey bypass Garyport Argyll TN6 1WU,Wed
Ms. Rebecca Perry,11,79 Derek streets Port Rosstown Clackmannanshire CA1Y 8ZE,Mon
Mrs. Andrea O'Neill,12,813 Rowe way Jonesside Moray EH5R 1PL,Thu
Mr. Phillip Chapman,13,Flat 80j Donald crescent New Samantha Cornwall LA7 7HU,Thu
Mr. Denis Savage,14,9 Victoria glen East Naomi Buckinghamshire M21 3QP,Mon
Carolyn Allan,15,Studio 85 Melissa cove Pottsville Herefordshire RM6W 1RD,Thu
Timothy Brown,16,Studio 40k Ashleigh court Allenfurt West Lothian WN40 0FE,Thu
Natasha Coates,17,Flat 48j Jasmine crossroad New Russell Hampshire PR5H 4QG,Wed
Ben Andrews,18,Flat 94 Smith mount Robertsshire Suffolk B8F 3XU,Thu
Josephine Willis,19,310 Ward manors Samuelberg Lanarkshire OL45 5UL,Tue
Shirley Stewart-French,20,50 Graham motorway Smithhaven Zetland HG20 1PT,Thu
Lydia Davies,21,858 Lewis forest Port Aaron Banffshire JE62 9EW,Tue
Melanie McCarthy,22,2 Terence vista Leeberg Kinross-shire SW2 1ZE,Thu
Dr. Valerie Hughes,23,1 Sharp loop East Lisachester City of Belfast BT9N 2QX,Thu
Linda Harris,24,5 Hammond ports New Victoria West Sussex M4H 1DD,Mon
Dr. Elizabeth Hudson,25,Flat 47M Mills key Lake Aaronstad Hampshire CH1 9YW,Mon
Mitchell Miller-Gray,26,07 Harry ridges North Dale Northamptonshire E5 5SP,Wed
Emma Newman-Burton,27,02 Hanson bypass New Clareburgh Down B83 5PB,Thu
Kieran Baker,28,6 Victor field Lake Kimberleyland Bute W1 8ZZ,Tue
Dr. Andrew King,29,851 Lee ports Jasonstad Antrim CO6 4BU,Tue
Christopher Short,30,597 Nicholas club Christinetown Lancashire GY2 9GY,Wed
Glenn Gray,31,02 Maureen throughway Mitchellberg Derbyshire B65 5XP,Mon
Geraldine Hayward,32,80 Quinn summit East Tomside Oxfordshire M39 5XH,Thu
Scott Green,33,43 Lydia cliffs Owenmouth Cambridgeshire M9 5RA,Thu
Bernard Taylor,34,46 Amanda ridges New Bryan Lincolnshire E0J 6FQ,Tue
Mrs. Michelle Wright,35,Flat 95X Craig vista Port Edwardstad South Yorkshire N7H 1XR,Tue
Samantha Duncan,36,Studio 76 Rebecca row Harperfort Kinross-shire GY3 4TL,Mon
Damien Dale,37,0 Tom landing Carolechester Ayrshire WF7 2XH,Wed
Reece Cox,38,508 Elaine manor West Norman West Sussex E37 1ZZ,Tue
Mrs. Helen Thomas,39,52 Luke station Kennethport Cumbria N68 8DQ,Mon
Jean Hardy,40,Studio 26 Wayne spurs Traceyshire Renfrewshire NP0 9PT,Thu
Hannah Graham,41,70 Antony mountain Reynoldsland Tyrone HU5 2RL,Wed
Mr. Adam Hancock,42,Flat 38a Norman branch Port Gregory Oxfordshire N5 1RB,Tue
Dr. Aimee Bell,43,1 Hayes wall New Lindsey Warwickshire M46 8GT,Thu
Amber Pearson-Hughes,44,5 Watson way East Sean Antrim WV2H 9ES,Mon
John Scott,45,4 Katherine grove Melissachester Bedfordshire S35 2FT,Tue
Jemma Humphries,46,60 Jake cape Wyattport East Lothian PO03 7QY,Wed
Dr. Dylan Hunter,47,58 Hollie prairie East Carole Fife N5 5ED,Thu
Dr. Alan McCarthy,48,Flat 9 King mews West Malcolm Greater London DT7E 0BD,Tue
June Gregory,49,Flat 95p Savage run East Eric Dumfriesshire S49 0JZ,Wed
Jamie Robinson,50,Studio 98e Paige keys Leannemouth Fermanagh KY97 7PQ,Tue
Rachael Turner,51,07 Scott junctions Masonview Northumberland E0 1JP,Wed
Donald Day,52,498 Rhys drives East Kayleigh Hertfordshire PH9A 9NG,Thu
Fiona Morris,53,7 Simpson orchard West Graceview Kinross-shire PE66 1ZY,Thu
Linda Green-Douglas,54,341 Andrea street South Robert East Sussex E3H 1AN,Thu
Steven Hopkins,55,61 Bibi lights South Alexander Moray NG9 5JF,Mon
Miss Melanie Kaur,56,702 Alexandra islands Winterburgh Suffolk M35 3XH,Tue
Dr. Kevin Parkinson,57,Flat 74 Vanessa street Jonesside City of Bristol M9 2FU,Wed
Louise Williams,58,Flat 5 Jodie unions East Jaynetown Antrim IG2 8EX,Thu
Karen Lewis,59,258 Phillip stream Mooreborough Norfolk HX92 0HL,Wed
Justin Savage,60,24 Cartwright plain Geoffreytown Midlothian N1 8DH,Thu
Nicole Bentley,61,Flat 30V Brett turnpike Jacksonchester Greater Manchester SS2Y 5PX,Mon
Jennifer Stephens-Bentley,62,7 Johnson way Andrewsville Herefordshire TS6M 4FJ,Thu
Joanne Gibson,63,Flat 67E Jennifer knolls Lake Robinfort Kincardineshire LE6P 8ES,Wed
Hayley Kay,64,"7 Thomas track Emmahaven Yorkshire, East Riding E7U 6JW",Thu
Mohammed Johnston,65,5 Fuller points West Eleanormouth Inverness-shire TA6 8ST,Tue
Mrs. Annette Barton,66,Flat 5 Hazel station Holliestad Essex G3S 8DH,Wed
Dr. Sean Barton,67,231 Weston islands East Francis South Yorkshire RM7 1TG,Tue
Anthony Jones,68,Flat 24T Chadwick cliffs Ronaldland Kinross-shire E6 7AJ,Thu
Amy Robinson,69,Studio 60 Rogers court Port Wayne Tyrone N7 2LF,Thu
Miss Katherine Watson,70,Studio 66c Fiona street Taylormouth Stirlingshire SM9 8XL,Mon
Diane Cooper,71,9 Martyn bridge Timothyberg Cambridgeshire W95 2YY,Thu
Mr. Glen Williams,72,1 Ross oval Port Judithbury Argyll SG05 1AB,Mon
Kyle Allen,73,Flat 09s Garner mill Davidsonmouth Somerset GY5V 1YN,Tue
Ms. Emma Edwards,74,Studio 79h O'Brien road Harrisonhaven Cambridgeshire HD02 1WA,Tue
Jay Rahman,75,50 Martin harbor Damienland Hampshire B19 0GU,Tue
Dr. Eric Carr,76,Studio 0 Diane mall Mitchellbury West Lothian WD8 8YZ,Thu
Dr. Michael Davey,77,2 Vincent fords Hamiltonchester Buckinghamshire G9 5NF,Wed
Denise Sims-Smith,78,Flat 2 Spencer locks Timothytown Cheshire ME84 5ZN,Thu
James Williams,79,534 Jeffrey summit West Nicoleville Banffshire L4U 7GL,Tue
Gary Matthews,80,Flat 27u Williams wall Port Jay Armagh M3A 9EX,Mon
Jordan Barker,81,Studio 15w Denise stravenue Mohammadville Surrey E5U 7ZF,Thu
Ms. Julie Bennett,82,Flat 7 Smith forge Vaughanville Caithness CV0X 8XY,Tue
Darren Thompson,83,Flat 56 Jennings rapid Lake Jacobton Aberdeenshire E2D 6WR,Mon
Guy Cook,84,Flat 57 Vanessa spurs Wheelerfort East Sussex W4 3BL,Wed
Iain Owens,85,9 Abbie corner New Carolynview Armagh PO4R 9QS,Tue
Samuel Butler,86,0 Carl drive Port William Tyrone HG75 6YE,Mon
Gareth Jones,87,Flat 23 Megan meadow Port Gillianfort City of Belfast M1G 3SR,Wed
Ashleigh Metcalfe-Bird,88,Flat 5 June isle Lake Camerontown Hertfordshire E43 1JW,Wed
Alan Brooks,89,Studio 31v Geoffrey walk West Keith Worcestershire M1 4TX,Thu
Mr. Elliott Carter,90,Studio 50Z Nelson crossing Jayfurt Essex W07 4PR,Thu
Sara White,91,Studio 3 Thomson ways Traceyhaven Staffordshire E0G 5PB,Tue
Dr. Jordan Goddard,92,14 Vanessa flats Greenville South Yorkshire M7B 6FG,Thu
Barry Clarke,93,Flat 2 Hardy crossing Taylorton Greater Manchester WF9 8XZ,Mon
Miss Lorraine Chapman,94,Flat 98 Bell hill New Annette Antrim L5 1JW,Mon
Victoria Goddard,95,58 Olivia ramp West Jason Cambridgeshire TD8 6UL,Mon
Alexander Smith,96,Flat 02 Buckley rapid Nigelfurt West Sussex NP27 2FU,Wed
Ms. Dawn Weston,97,0 William inlet Ashleighland Argyll GU8 8EX,Tue
Dr. Jeremy Sullivan,98,11 Lloyd corners Allanton Berwickshire SO3W 9ZW,Thu
Hugh Hope,99,5 Clarke ridge Port Anne Lanarkshire CA8 6FN,Tue
Adrian Holland,100,Flat 1 Ellis point Malcolmton Lincolnshire ML9 8FE,Mon
Ms. Alexandra Newton,101,Studio 68 Annette club Johnhaven Tyne and Wear E54 6ZS,Mon
Sally Patel,102,Studio 15 Morris path New Rogerburgh Derbyshire SM8 3XG,Tue
Dean Sanders-Butler,103,69 Baker station Lake Joshville Clackmannanshire B3 8JT,Mon
Glenn Howard,104,7 Hammond loop Port Lyndashire Kent L19 8ZD,Mon
Dr. Bryan Jones,105,Studio 9 Teresa greens Denisefort Inverness-shire TR9 9NR,Tue
Diane Wood,106,Studio 09m Bethany knolls North Garyberg Kinross-shire HA2 0WQ,Mon
Dr. Mohammad Griffin,107,Studio 6 West bridge Hartberg Berwickshire N44 2WA,Mon
Mr. Gareth Harper,108,Flat 4 Luke stravenue West Dennis East Sussex TD2 9PP,Tue
Louis Gibson,109,1 Walker extension East Mohammad Down G1E 8UT,Thu
Victoria Parker-Macdonald,110,Studio 10m Bethany green Gregoryville City of Belfast SM5 7BF,Mon
Dr. Jasmine Long,111,09 Alan extensions Johnstad City of Derry E8U 3ZX,Thu
Thomas Rowe,112,21 Howard fork East Karl Ross & Cromarty DN8B 1ZN,Tue
Owen Gardiner-Atkinson,113,22 Gardner island Port Gerardhaven Greater Manchester M50 0GA,Mon
Ms. Leah Norman,114,Flat 4 Brenda underpass Kingfort Selkirkshire W6 9DE,Tue
Charlotte Roberts,115,Studio 2 Davies lodge Port Sophieville Dorset HA1 9UT,Mon
Leonard Hodgson,116,05 Warren coves West Waynestad Essex LD5W 3LX,Mon
Nicole Williams,117,Flat 71 Lynn meadows Declantown Leicestershire E0H 8US,Tue
Ashley Taylor,118,9 Wilson village Lake Rebeccabury Down M9 2FA,Tue
Miss Katie Nolan,119,4 Atkinson village New Liam Leicestershire L06 6ND,Tue
Mrs. Vanessa Jones,120,1 Jonathan causeway New Mohamedtown Dumfriesshire B8T 4DB,Mon
Lewis Wallace,121,01 Young plaza Port Paigeberg Nottinghamshire SR1V 2JH,Mon
Kim Cox,122,593 Patrick keys North Annebury Fife SL7 5FP,Mon
Hugh Robertson-Taylor,123,Studio 95 Norman gateway West Margaret Cumbria M28 1ZP,Mon
Sophie Lawrence,124,567 Terry fords North Alexanderchester Greater London OX21 3TQ,Mon
Dr. Malcolm Gill,125,8 Harrison roads North Kierantown Isle of Wight B6 5JX,Thu
Graeme Baxter,126,Studio 90 Allan mountains Sheppardfurt Banffshire S51 3TR,Thu
Mrs. Nicole Jennings,127,Flat 81V Robinson port Jasonstad Isle of Wight DY6B 6UN,Tue
Mrs. Hazel Graham,128,Flat 65U Mark valleys Lake Denismouth Hertfordshire E7G 6UJ,Wed
Allan Oliver,129,7 Raymond tunnel Russellview Stirlingshire WR73 5GD,Tue
Ms. Anne Goodwin,130,Flat 19g Aimee path Smithberg Kinross-shire E8W 3RQ,Tue
Marcus Newton,131,Flat 64j Hewitt mall South Bradleytown East Sussex L7G 1AN,Mon
Dr. Mathew Taylor,132,Flat 8 Ashley walks New Mohamed Roxburghshire RM59 9WW,Mon
Miss Pauline Baldwin,133,16 Nathan burgs Barlowchester Antrim RH8M 4DP,Mon
Dr. Ricky Clarke,134,Flat 48 Burrows vista Lake Declanhaven Somerset LE9 3ND,Mon
Albert West,135,Flat 0 Higgins pines North Jemma Derbyshire E91 5HX,Wed
Kevin Clarke,136,170 Whitehouse loaf Port Rachaelberg East Sussex N4 5HG,Mon
Dr. Anthony Harris,137,35 Wilson isle Carlyberg Midlothian BH7P 0WX,Thu
Kathleen Warren,138,Flat 0 Bibi rapids Winterport Tyne and Wear L8 0FR,Mon
Geoffrey Jones,139,657 Georgia causeway West Kelly Peeblesshire E48 2XW,Thu
Abdul Evans-Burke,140,Studio 8 Stacey prairie West Raymondberg Shropshire M2 7UZ,Thu
Dr. Ben Simpson,141,Studio 06 Tracey ville Port Lynnton Derbyshire FY5H 3BX,Tue
Nathan Boyle,142,"4 Ball harbor North Declanhaven Yorkshire, East Riding N3E 5LQ",Thu
Dr. Joseph Palmer,143,Flat 0 Knight road Gardinershire West Sussex M2D 1JZ,Thu
Miss June Lloyd,144,32 Parsons mill South Helenton Fife L88 9SU,Wed
Jayne Carter,145,Studio 91U Lewis land Lake Kathryn Berkshire M44 7PL,Wed
Dr. Nicholas Ross,146,18 Pickering isle Albertport Shetland W4D 7JE,Tue
Naomi Baxter,147,Studio 5 Deborah vista West Melanie Greater London NW90 2RY,Tue
Deborah Smith,148,26 Ahmed club New Maryland North Yorkshire L4S 8NZ,Tue
Catherine Taylor,149,Studio 4 Brenda cliffs Lake Owen Merseyside RH9 7FA,Thu
Hilary Powell,150,Studio 59F Wilson rapids Port Victoria Inverness-shire G3 5ZS,Thu
Anna Carr,151,374 Clarke brook Evanston Rutland PA3H 5GU,Tue
Dawn Walker,152,267 Parsons rest Kaystad Wiltshire CT81 4NF,Wed
Dr. Kevin Hall,153,Studio 64U Gareth island South Stewarttown Lanarkshire CT8N 2TQ,Thu
Tracy Harper,154,6 Ann motorway North Leah Devon BA2 0LT,Thu
Dr. Annette Haynes,155,Studio 3 Gray ford Walshborough City of Bristol W53 9HQ,Thu
Malcolm Jenkins-Cartwright,156,83 Hilary junction Port Sianhaven Nottinghamshire G6 9SE,Thu
Miss Leanne Stone,157,855 Gray motorway Thompsonborough Nottinghamshire N13 8GS,Wed
Joanna Willis,158,191 Amber gardens North Deborah Derbyshire L9A 2HW,Mon
Brenda Black,159,8 King ramp Samuelburgh Cumbria WF4 7TX,Tue
Eric O'Brien,160,Flat 25U Kyle court East Anthony Dunbartonshire DA8 1QP,Tue
Abdul Hunt,161,98 Baker throughway Lake Emily East Sussex G1 8HA,Thu
Mr. Darren Stevens,162,60 Hart plaza Stevensport Perthshire N61 8BR,Wed
Jasmine Lowe,163,9 Singh crescent Farrellton Berwickshire E1 1RW,Thu
Michelle Robinson,164,5 Charlie spurs West Rachel Midlothian NN8 1SW,Wed
Kenneth Wilson,165,Studio 3 Susan pines Suttonport Fife UB42 1GY,Wed
Dr. Jade Mitchell,166,00 Newton track East Max Ayrshire L8U 7NA,Thu
Graham Bailey,167,Studio 0 Robinson spring North Robert Banffshire SK8R 4AU,Wed
Ms. Kirsty Read,168,Flat 7 Rose plaza Begumberg City of Bristol CO1 9ZG,Mon
Ms. Claire Poole,169,Studio 4 Gerald street West Lynne South Yorkshire G82 8UT,Mon
Mr. Jeremy Briggs,170,223 Eric corner Humphreysmouth Warwickshire B0 3SB,Mon
Carole Hayes,171,Studio 95 Bethany run New Mohammad Hampshire BR58 5DJ,Mon
Sarah Potter,172,Studio 51 John roads Frederickton Dumfriesshire BL0W 2ZG,Tue
Dr. Brenda Edwards,173,22 Hunter glen West Junechester Fermanagh M9C 3TR,Thu
Jacqueline Roberts-Sinclair,174,Flat 2 Cole glens North Aaron Orkney W58 0XQ,Wed
Max Fuller,175,Studio 56 Jayne place West Josephine North Yorkshire HX80 9UR,Wed
Mr. Max Holmes,176,Flat 70 Ahmed ridge Nichollston Wiltshire CW0 6EZ,Thu
Wendy Jones-Young,177,76 Holly haven Lucyberg Oxfordshire SN5M 0DF,Wed
Mr. Steven Moore,178,Studio 1 Davies turnpike Kimport Kirkcudbrightshire G9K 0LU,Tue
Samuel Dennis,179,786 Hughes ramp Fosterbury Wiltshire BN5 7AZ,Mon
Christian Kay,180,Flat 4 Jeremy mills East Geraldine Armagh G5K 4GP,Thu
Dale Watson,181,075 Emma parkway New Graham Greater Manchester E83 0SY,Mon
Malcolm Scott,182,Flat 53 Ashton key Lake Carole Banffshire SK0 1PH,Mon
Tracy Green,183,1 Dixon well South Jillside Dunbartonshire DH66 9LQ,Mon
Victoria Craig,184,Studio 19i Robinson mountain New Owenbury Peeblesshire E16 5GR,Thu
Trevor Arnold-Dodd,185,"5 Mitchell cape Atkinsonstad Yorkshire, East Riding W17 3EJ",Thu
Alexander Hamilton-Ingram,186,Studio 56 Richardson run Wilkinsonville Clackmannanshire S89 3ZT,Mon
Ms. Gillian Lee,187,Studio 74 Katherine rest Pearsonberg Kirkcudbrightshire LU3W 9DZ,Wed
Ms. Grace Evans,188,Studio 35 Denise cove Robinland Isle of Wight PL9 6EW,Tue
Mark Dyer,189,Studio 81E French way Smithton Roxburghshire B1 0SL,Tue
Amelia Williams,190,30 Lowe curve North Vanessa Kincardineshire M25 7RT,Tue
Mrs. Sandra Baker,191,244 Alison mill Katherinetown Dunbartonshire S3 4SG,Mon
Kimberley Reynolds,192,718 Ross passage Beverleyside City of Derry IM5R 8SB,Wed
Natasha Wilkins-Hill,193,Studio 05P Dennis drive Howardfort West Lothian M16 2EJ,Wed
Michael Clark-Pope,194,Flat 13 Greenwood stream North Marionmouth Orkney SG1H 6AJ,Mon
Bradley Jennings-Wright,195,Studio 17U Alex extension Port Aaron Lancashire S76 1NP,Wed
Mr. Guy Williams,196,9 Foster shore North Stephen Derbyshire JE0A 7ZP,Mon
Stacey Walker,197,7 Kirby walks Brianside Fife E7A 9RQ,Tue
Dr. Jeffrey Hall,198,04 Peacock place North Abbie Shropshire E0B 7NB,Thu
Janet Walker,199,856 Sykes harbor Terencebury Cornwall L92 5PX,Wed
Mr. Alexander Pearson,200,Flat 90Y Paula run Lake Franceston Lancashire HD5H 5LA,Wed
Cheryl Carroll-Davies,201,Flat 70a Lauren club South Alicebury Hertfordshire N65 2ST,Mon
Mr. Kyle Carter,202,1 Davies row Paulastad Shropshire S48 3PB,Mon
Malcolm Harding,203,479 Michelle fork New Jasmine Kirkcudbrightshire OL3M 7YN,Thu
Karen Chapman,204,672 Melissa mission Billyberg Roxburghshire E4 8HT,Wed
Dr. Philip Thorpe,205,4 Dale turnpike New Sandraberg North Yorkshire ST9 8TE,Tue
Patricia Bird,206,Flat 5 Thomas green Lake Rhysbury Derbyshire N5A 2HR,Mon
Charles Marshall,207,Studio 81B Hayley points Denisfurt Peeblesshire UB2X 0PU,Tue
Holly Lawrence,208,48 O'Donnell station Port Yvonne Moray B3T 1ZY,Mon
Sandra Pearce,209,Studio 91B Aimee meadows Michaelhaven Worcestershire G4F 0WX,Thu
Luke McDonald,210,6 Metcalfe river Conwaybury Angus M92 5EL,Thu
Tracy Johnson,211,51 Carolyn mall Smithshire Selkirkshire W06 3SY,Tue
Zoe Evans-Mason,212,Studio 8 Patricia field Oliverville Oxfordshire SO66 3NZ,Tue
Maureen Hawkins,213,357 Janice plaza North Barryburgh Rutland PH71 2YX,Thu
Dr. Gillian Chadwick,214,Flat 9 Alan heights Wardchester Midlothian CA6V 8HW,Mon
Kirsty Ashton,215,"49 Lyons stravenue Edwardsmouth Yorkshire, East Riding B50 7QR",Mon
Ms. Holly Robson,216,404 Yvonne passage Johnhaven West Sussex B81 3GZ,Tue
Geoffrey Ward,217,715 Turner prairie East Juneview Merseyside IG55 6PE,Tue
Marcus Stewart,218,Flat 6 Hurst vista Andrewsberg City of Bristol W0 1YP,Wed
Gregory Heath-Davis,219,Flat 5 Geraldine mills Port Irene City of Derry AB50 1WW,Tue
Dr. Charles Watson,220,Studio 46Q Paige turnpike North Lynn Berwickshire CB7 6QS,Wed
Eric Cox,221,650 Naomi meadow Shaneview Lancashire M5 5SD,Mon
Mr. Gordon Thomas,222,Flat 29 Sarah grove Ellieside Berkshire DE23 1NF,Tue
Carol Harrison,223,37 Forster river Shahbury Isle of Wight S1B 8DA,Thu
Tracy Davidson,224,Flat 8 Gregory spurs New Paul Londonderry M4 1GD,Mon
Joanna Forster,225,648 Jake terrace West Richard Shropshire G9E 8XZ,Tue
Mrs. Harriet Young,226,9 Morris brooks East Lynn Berkshire N35 3RR,Thu
Jacob Roberts,227,95 Watson forest Harrisbury Norfolk S0 9SE,Mon
Janet Scott-Green,228,5 Cameron lodge Lake Tina Midlothian L0 7DH,Tue
Alexandra Davies-Walker,229,146 Frances crossroad Ryanfort Aberdeenshire DE5 4RA,Tue
Pauline Porter,230,14 Stewart path West Katy Aberdeenshire HX3 6HQ,Wed
Mr. Declan James,231,Studio 5 Jeffrey burgs West Kerryton Derbyshire DG72 8RB,Thu
Darren Howe,232,Flat 59F Jodie harbor North June Argyll B6 5AF,Tue
Terry Chadwick,233,Studio 32o Jones locks Port Leonton Argyll SE40 3YT,Thu
Dr. Stuart Davies,234,514 Moore court Lake Ellie Londonderry M87 9BD,Thu
Jean Evans,235,Studio 80 Anderson trail Hazelfort Tyne and Wear N5 0ZD,Mon
Brett Martin-Reed,236,Flat 68f Williams knolls East Geoffrey Cumbria M52 7NW,Thu
Ben Harding,237,Studio 1 Clark plaza Kirkhaven Somerset B9 7SP,Tue
Dr. Nicole Lucas,238,21 Phillips curve Youngshire Kincardineshire W6 8JF,Tue
Aaron Davies,239,Flat 22h Marc roads South Danielle Greater London L23 1NE,Thu
Lisa Lamb,240,659 Richardson meadow New Ashley Greater Manchester ML6X 8JQ,Tue
Jay Booth,241,43 Rees trafficway Port Rhys Nairnshire S71 0JA,Tue
Marian Walton,242,Studio 82E Wheeler extensions West Bethanyshire Warwickshire M1 3PQ,Thu
Brandon Johnson-Price,243,2 Kate garden East Catherinechester Cornwall W38 3FE,Mon
Bradley Mason,244,Studio 68 Stephanie highway Port Antony Buckinghamshire BA06 5PG,Thu
Karen Jones,245,Flat 19b Harris manor South Brandonton Ross & Cromarty G8K 8AZ,Wed
Marc Jackson,246,Studio 38 Sara ranch Williamsmouth Northumberland N4K 4EU,Tue
Karen Miller,247,Studio 51 Pearson view Swiftside Bute W46 3RS,Mon
Mrs. Donna Bryant,248,05 Carolyn field Elliehaven Somerset E1 6DU,Tue
Dr. Gordon Wilson,249,Studio 7 Michael gardens North Martinfurt Shropshire G4 1JE,Thu
Kirsty Collins-Harper,250,6 Thomas circles East Rosemary East Lothian M2C 4GY,Tue
Dr. Ben Woodward,251,Flat 16 Karen dale East Karlberg Fermanagh LN80 5DA,Tue
Alex Hunter-Bates,252,38 Baker fork Lake Alanville Midlothian CR78 6TP,Wed
Henry Shah-Johnson,253,Flat 41 Charles row Walkerland Dorset M0G 1PG,Mon
Elliot Lawson-Kirk,254,2 Sylvia drive Kylestad Essex G95 4US,Mon
Guy Howarth,255,345 Nicholas via Richardburgh Orkney M0 7UE,Thu
Dr. Darren Russell,256,Flat 58 Price motorway Yvonnefurt City of London PO0 9GR,Wed
Charlie Parkes,257,394 Pratt creek East Jacobburgh Cumbria RH6 2XW,Mon
Mr. Lee Evans,258,Flat 1 Gail radial Hughesside South Yorkshire BL0 2RX,Tue
Kim Hill,259,Flat 28c Charles mills East Nicole Norfolk GY0Y 4QL,Mon
Raymond Hughes,260,405 Jayne courts South Sophie Cumbria E42 2JQ,Mon
Mr. Carl Khan,261,Flat 7 Mills way Evansville South Yorkshire NW8 9GH,Tue
Suzanne James,262,1 Toby roads Port Kate North Yorkshire N1 1PY,Mon
Miss Bethan Atkinson,263,9 Lawson street Stuartfurt Sutherland L3H 5ET,Tue
Brenda Morgan,264,56 Griffiths freeway Callumfort Ross & Cromarty S9 9ZZ,Thu
Mrs. Amber Evans,265,9 Denis wells East Rhys Northamptonshire NR65 7PX,Mon
Sophie Clark,266,5 Harvey roads Parrymouth Lincolnshire UB1 3WE,Tue
Mr. Julian Hilton,267,Flat 4 Jones groves South Julietown Perthshire NN30 9BJ,Tue
Roger Morgan,268,0 Goddard mews Sandraton Suffolk M59 7BY,Tue
Lorraine Richardson,269,Flat 2 Barnes streets South Rosieburgh Ayrshire W64 1BL,Wed
Jay Porter-Murphy,270,25 Lees shores North Graemebury Ross & Cromarty WS2V 1US,Tue
Lorraine Allen,271,067 Marian parks Port Karl Hampshire NG1 3RH,Thu
Sharon Hall,272,4 Chandler ridge East Francescastad Wiltshire N1T 4PN,Thu
Henry Walker-Todd,273,27 Howell mountains Lake Marc Cornwall M5C 0TD,Mon
Ronald Cole,274,Flat 81Q Samuel burgs Gailberg Buckinghamshire E31 2BN,Thu
Joan Jones,275,Studio 7 Brett vista West Rogerchester Caithness N62 1LL,Tue
Mr. Clive Glover,276,Studio 52 Barbara estate South Emmaview Greater Manchester HS0Y 9LG,Wed
Danielle Miah,277,Studio 39G Jones bridge Georginaberg Caithness BB7 6DB,Tue
Frank Wilkins,278,9 Black road South Brian Hampshire CW04 3AD,Tue
Marion Taylor,279,73 Briggs drives North Connor Renfrewshire EX0 1WG,Thu
Mr. Victor Parker,280,Studio 47 Gordon fort Meganberg Selkirkshire ST37 9LE,Wed
Marion Parker,281,89 Hall flats Browntown Tyne and Wear GY4 0WF,Tue
Stephen Lane,282,985 Smith centers New Jamie West Yorkshire TR89 6TB,Mon
Dr. Melissa Wilson,283,8 Howells throughway Evansfurt Norfolk L1 9RL,Thu
Elizabeth Hall,284,Flat 66 Charles bridge East Kevintown Ayrshire N9 0XW,Mon
Mrs. Lynne Edwards,285,Flat 09g Dylan court West Beverleyborough Merseyside WF2 8WR,Thu
Roger Thompson,286,81 Haynes rest North Shaunfurt Herefordshire E27 6GD,Thu
Paige Richardson,287,Studio 4 Walker street Hazelborough Cumbria G68 6BT,Tue
Jennifer Gallagher,288,Flat 20 Joanna mountains Stanleyport Lanarkshire EC2R 8BB,Wed
Lawrence Williams-Daniels,289,42 Jill hollow Martinstad Ayrshire E2U 7LQ,Mon
Adrian Berry,290,Studio 2 Evans fort New Danny Greater Manchester WC3 2ET,Mon
Owen Johnson,291,Flat 0 Darren point Hollietown Wiltshire S3 4ZB,Thu
William Moore,292,Flat 06s Tony island South Bryan Armagh BS16 9SS,Wed
Ms. Hollie Arnold,293,70 Maria view Katyville Cornwall N2 5FX,Thu
Alexandra Chamberlain,294,841 Joseph ridges North Kirsty Lincolnshire G0E 4QB,Thu
Miss Olivia Osborne,295,4 Debra square South Jacobstad West Midlands TR0 9RP,Wed
Bethany Williams,296,Studio 6 Sian street Wilkinsonfurt Gloucestershire CA9 8BY,Wed
Dr. Alex Dobson,297,Studio 1 Richards fields Sheppardport Clackmannanshire DA1 8NA,Thu
Stephen Smith,298,Studio 59 Allan locks South Georgetown Antrim SL7X 6EU,Tue
Kathleen Lee,299,472 Gareth wall Mohamedshire Surrey EX1 4PH,Tue
Ms. Julie Archer,300,99 Palmer groves Kimhaven County Durham PA0X 8UT,Thu
Roger Smith,301,688 Sandra bypass Abigailbury Worcestershire B82 3WQ,Thu
Nicole Thomas,302,Studio 87L Yvonne locks Barkershire Down S73 4NY,Tue
Carolyn Harris,303,Flat 95v Carter neck South Kellyville Hertfordshire IM8M 8EA,Mon
Susan Owen,304,Studio 6 Matthew squares Kellyborough Aberdeenshire DN2H 1DX,Wed
Barry Watson,305,Studio 99L Ford locks Murraymouth City of Belfast DA1N 5BH,Tue
Mr. Josh Stone,306,Studio 12R O'Connor motorway South Bruceport Dorset W6 9QF,Tue
Scott Burke-Davies,307,8 Haynes ridges Warnertown Lancashire SS8Y 7LL,Tue
Pauline Brooks-Archer,308,Studio 36A Nigel flats West Tracymouth Bedfordshire UB33 5XZ,Thu
Jodie Warren-Burke,309,59 Owen ports New Christine Norfolk IP0 8FG,Tue
Dominic Hawkins,310,57 Baker summit Holmesberg Tyrone S50 0WU,Thu
Stephanie Graham,311,Flat 68 Pratt valley West Suzanneview Perthshire M5C 0BR,Thu
Dr. Natasha Thompson,312,Studio 72 Mandy forge West Timothy Ross & Cromarty ZE3 3XJ,Thu
Dr. Alan Nash,313,Flat 76k Bond park West Francesca Kirkcudbrightshire RM8E 1LW,Mon
Amy Jenkins,314,Studio 74 Day forks East Kathryn Bedfordshire E8S 9ND,Thu
Mr. Thomas Evans,315,0 Carole dam East Andreaview Lancashire G7F 1TF,Thu
Shirley Phillips-Robinson,316,39 Roberts forge Annetteborough Dunbartonshire L8 9YG,Thu
Thomas Godfrey,317,245 Murphy common Jayborough Dorset OL9M 0ZF,Wed
Josephine Brown,318,Studio 15 Damian estate Heatherhaven Ayrshire S7F 4XY,Thu
Ms. Lisa Hunt,319,8 White plains Jonesport Warwickshire WV3P 2DZ,Tue
Beverley Patel,320,5 Sarah brook Lake Kenneth Tyrone B2 8QZ,Mon
Irene Walsh,321,Studio 36l Simmons falls Collinsborough Cumbria ML6 8QH,Thu
Mr. Jacob Baldwin,322,Studio 53 Kerry cove Port Rachel Cornwall L2 2BW,Wed
Catherine Gray,323,Flat 18e Clarke meadow Lake Glenville Cheshire HA2 5HU,Tue
Sheila Newton,324,2 Warren walks New Leonard Lincolnshire ML5P 0FA,Tue
Hannah Gregory,325,7 Williams vista South Garethbury Buckinghamshire HS6 9QA,Tue
Sarah White,326,094 Bates pine Nicholsonville County Durham CO0 0GN,Mon
Alexander Green,327,095 Hartley mills Morrisburgh Clackmannanshire IV96 6EE,Wed
Nigel Clark-Pritchard,328,759 Bryan trail Lake Darren North Yorkshire M20 2LT,Mon
Mr. Bryan Scott,329,95 Judith village Port Francisfurt Kinross-shire N4 5JN,Mon
Terry Spencer,330,836 Ryan ports East Kateburgh Cheshire DH63 3NY,Wed
Elaine Dickinson,331,99 Teresa drive Lake Catherine Caithness FK92 1JN,Wed
Sean Powell,332,912 Lamb circles Jemmashire Wigtownshire N4 0WR,Mon
June Flynn,333,618 Terence mountain Port Davidtown Peeblesshire RM34 5LQ,Wed
Melanie Howard,334,Flat 5 Angela well Jemmaview Devon M4 1QT,Mon
Janet O'Brien-Cole,335,Flat 07r Kathleen estates New Wayne Leicestershire PA8 6XN,Tue
Dr. Clive Jennings,336,Flat 9 Fraser crossing West Rosie Warwickshire E86 1EW,Mon
Mrs. Jasmine Ward,337,Flat 95 Pearson branch New Henryfurt Antrim KT8R 0JJ,Thu
Jasmine Mason,338,030 Nicole tunnel North Yvonne Shetland B5D 6XL,Mon
Jake Haynes,339,3 Stuart isle Leahtown Surrey TD7 8EL,Thu
Dr. Alison Porter,340,Studio 40m Brooks port Francisview Buckinghamshire E37 6RZ,Mon
Samuel Scott-Taylor,341,Studio 29 Denis estate West Mitchellshire Warwickshire E6 8AL,Wed
Mrs. Leanne Lucas,342,Studio 16 Mistry square East Emilyburgh Worcestershire SK1 2QD,Wed
Dr. Maureen McDonald,343,9 Blake station Fowlerchester Perthshire CV3X 1PJ,Thu
Damian Collins,344,Flat 76T Dale fords South Jemmafurt Buckinghamshire E08 0ZR,Thu
Lisa Cross,345,Flat 02v Taylor rapids Port Elliotbury Banffshire CV00 1QT,Thu
Ms. Ruth Peacock,346,Flat 82 Sutton harbor Sylvialand Orkney WS6Y 7BL,Mon
Rita Taylor,347,Flat 4 Diana port South Joshuafurt Northumberland WF8 7XS,Thu
Dr. Grace Mills,348,Studio 40 Martin mill Lynnshire Somerset W6A 7HN,Tue
Mrs. Megan Owen,349,Studio 14 Bailey union Port Thomas County Durham SW05 5JJ,Mon
Dr. Hugh Dean,350,21 Murray crossroad New Kim West Yorkshire IM47 3GY,Tue
Dr. Jessica Scott,351,096 Hancock circle Harrisview Wigtownshire B92 6LB,Tue
Brett Newton,352,Flat 04B Kevin divide Mitchellland Shetland LN56 5PU,Mon
Dean Edwards,353,Studio 84 Francis squares West Lisaborough Berkshire G5 3PB,Mon
Charlotte Taylor,354,Studio 14 Wright ports South Angelaport Lancashire M88 3TA,Wed
Mrs. Rachel Taylor,355,Studio 68 Sanders glen South Jill Orkney CT8 8LF,Wed
Barry Chandler-Burns,356,Flat 06w Collins neck New Catherinechester Perthshire N9 9XJ,Mon
Janet Smith,357,6 Smith grove North Dylanville Dunbartonshire HU07 7BS,Wed
Maurice Patterson,358,9 Charlotte drive Joeberg Selkirkshire N05 4NT,Thu
Dr. Leah Patel,359,"Studio 75 Davis overpass South Leeburgh Yorkshire, East Riding L16 5SE",Wed
Mrs. Kirsty Kelly,360,9 Stephen inlet South Naomi Antrim B3B 5DY,Tue
Mohamed Barber,361,1 Brown route Lake Tinahaven Armagh WR8 4SS,Tue
Mr. Joel Douglas,362,Studio 6 Walker mews Lake Paulineton Banffshire CW7X 6UT,Wed
Lydia Perry-Wall,363,75 Stewart mission Bethanyview Stirlingshire PH3 6AT,Thu
Hazel Hawkins,364,Flat 65 Oliver dam Morrisborough Nottinghamshire PH24 3LN,Thu
Adam Wilson-Chandler,365,Studio 98 Jamie ports Heathville Antrim N1K 1DF,Thu
Dr. Roger Williams,366,Studio 97 Steele field Port Wendy Tyne and Wear LS16 9WJ,Wed
Carole Williams,367,713 Leslie pass West Abdulton City of Derry HA50 6FJ,Wed
Amanda Cole,368,Studio 46 Luke cape North Dylanshire Isle of Wight N6C 1NG,Wed
Mr. Kieran Mason,369,94 George creek North Ashleighview Selkirkshire W8G 4EY,Mon
Lauren Collins,370,Flat 43 Shaun summit East Victor Caithness PE33 3ND,Mon
Brenda Buckley-Cooper,371,50 Daniel roads Morrischester Gloucestershire TF4R 2SD,Wed
Graham Watson,372,3 Paul fords East Leonard Tyrone L47 9PE,Wed
Suzanne Pearson,373,Studio 2 Thomas pine Reynoldsport Antrim KY83 8QR,Thu
Rosie Thomson,374,Studio 38 Willis rapid East Kirsty Zetland N8 7LR,Thu
Luke King-Nicholson,375,1 Fletcher knoll South Grahamland Armagh S2G 3DT,Thu
Norman Clarke-Foster,376,Flat 7 Wright groves Annside Antrim KW0N 4YH,Wed
Neil Turner,377,600 Morrison lights Port Nicholasborough Rutland G0G 7NQ,Mon
Dr. Pauline Grant,378,Studio 42w Shaw junction Lake Chloe Nairnshire G2 9TL,Tue
Amy Coles,379,699 Hayley burgs East Juliabury Ross & Cromarty M8 6EU,Tue
Leonard Morgan,380,5 Hill tunnel New Lydiaberg Midlothian CA0 6FE,Mon
Nicola Roberts,381,1 Charlie brooks Lawrencechester Lanarkshire S9H 4SG,Tue
Leon Barker-Hunt,382,839 Sarah ways West Grace Bedfordshire EC0X 7PB,Wed
Dr. Jacqueline Smith,383,Studio 78 Justin skyway Jordanborough Fermanagh S1D 4SQ,Thu
Owen Reed,384,Studio 24r Young trail Dawnfurt Midlothian AB98 6ST,Wed
Amelia Bennett,385,902 Zoe mountain Lake Melissaside Lincolnshire W21 6WE,Tue
Mr. Kenneth Dunn,386,Flat 36 Ball haven East Beverleyview Moray W2 5GR,Mon
Jamie Bell-Dale,387,05 Mary viaduct Hobbsville Midlothian DL02 3RR,Mon
Leigh Knowles,388,Studio 30m Taylor neck Donaldtown Worcestershire E0A 2TE,Wed
Tracey Hughes-O'Brien,389,024 Harvey pass Shannontown Stirlingshire S4 0GU,Thu
Arthur Patel,390,Studio 90 Donnelly branch Lake Gregoryland Zetland EH04 1GP,Tue
Jill Phillips-Foster,391,1 Harrison place Sylviahaven Perthshire N2 9AX,Mon
Nicholas Davies,392,Studio 5 Rosemary run South Amanda Zetland W0 7ZQ,Wed
David Bryan,393,826 Benjamin viaduct New Barbaraland Kinross-shire BH4 6WR,Mon
Kathleen Knight-Reynolds,394,Studio 72W Gail fall Chadwickhaven North Yorkshire N6C 9EU,Wed
Cameron Parker,395,594 Jacqueline drive North Yvonneburgh Isle of Wight B65 2ES,Thu
Vincent Adams,396,93 Taylor fields Port Josephinetown Zetland M7 7EP,Tue
Alex Wall,397,02 Katherine locks Port Jacktown Kent WN9Y 7PJ,Tue
Mr. Frederick Burgess,398,06 Shepherd street North Barry Norfolk L4 9DW,Wed
Mrs. Helen Clarke,399,Studio 7 Norman corner East Bethshire West Yorkshire DG0 7HR,Thu
Conor Patel,400,Studio 08 Alan avenue East Jacobbury Nottinghamshire B4D 1XT,Tue
Paula Dixon,401,Studio 16d Smith ramp Patelton Cheshire G62 7ZW,Wed
John Nicholson,402,Flat 30 Holt stravenue South Judithstad Fife B43 6FU,Mon
Dr. Jeremy Roberts,403,Flat 83 Barker wells New Patricia Nairnshire DN27 6EJ,Thu
Joshua Coleman-Roberts,404,Flat 0 Hilary shoal Jessicaville Lancashire ZE2 1XB,Mon
Michelle Davis,405,1 John plain Amandaberg Renfrewshire SK9 7QT,Thu
Terence Palmer,406,84 Burns fork Port Rosemary Caithness W1 7YZ,Thu
Mr. Reece Smith,407,Flat 17F Joe hill West Scott Northumberland SP15 3WU,Thu
Dr. Dean Murray,408,6 Francis spur Carolinemouth Herefordshire N3 1YT,Mon
Dr. Ruth Ross,409,Flat 17 Eleanor drives Tracystad Wiltshire S40 1YN,Tue
Mr. Graeme Foster,410,02 Catherine terrace North Lorraineberg Caithness HX9B 4AQ,Tue
Dr. Graham Lee,411,Flat 61b Carly inlet Lake Ryanfort Berwickshire W8F 0ZL,Wed
Hazel Ward,412,350 Joanna rapids Barlowfurt Cheshire WF7 7HQ,Thu
Kyle Holland-Cook,413,Studio 85 Hart turnpike Lake Geraldinebury Caithness B74 2FX,Mon
Kyle Young,414,40 Hobbs roads Denischester City of Bristol HA8 7RL,Wed
Marcus Francis,415,Flat 22g Bradley brooks East Marian Herefordshire S31 8ZG,Wed
Terence Robinson,416,50 Paul port Port Terenceview Isle of Wight CA70 4DJ,Thu
Douglas Holland,417,Studio 05z Rita villages North Wendyton Warwickshire BH7 7JP,Thu
Dr. Linda Lawson,418,Flat 63 Martin land Begumport City of Bristol W2 3EN,Tue
Kyle Shepherd,419,732 Kathryn centers East Melaniebury Ross & Cromarty TA03 9XT,Wed
Ian White-Smith,420,0 Jones extension Gibsontown Down WV26 3UQ,Thu
Leon Barker,421,6 Shane via Thomasbury Shropshire B6 2TB,Thu
Matthew Berry,422,985 Clifford crest Fowlerville Greater London W0 8XF,Mon
Mrs. Rita Parker,423,079 Georgia island New Bethan Peeblesshire L4 2LX,Wed
Denise Stevens,424,Flat 19b Cameron curve Evansport Caithness IM6 6DF,Mon
Hayley Buckley,425,2 Williams mews Smithborough Cumbria SE1R 4ZA,Tue
Dr. Ian Stewart,426,9 Jenkins track Leonardmouth Kincardineshire N84 6FR,Mon
Dr. Rebecca Henry,427,67 Armstrong pine North Cameron Hertfordshire L4 9GF,Tue
Katie Ward,428,Studio 25X Palmer falls Port Kate East Lothian W2 6YB,Mon
Kim Knight,429,42 Joe cliffs Lake Mohammedborough Nottinghamshire SA6 2XJ,Thu
Wayne Thomas,430,Flat 52L Hilary turnpike South Antony Antrim GU72 0TF,Thu
Sheila Davies,431,Studio 03 Carole views Robertchester Dumfriesshire G15 4UL,Thu
Stuart Robson,432,5 Davison manor Bakerborough Tyne and Wear CT2 4NZ,Thu
Katy Morgan,433,Flat 69E Donnelly crossing East Tomport Shropshire CH30 1RY,Tue
Ann Price,434,4 Stokes parkway Burtonton Lanarkshire HU21 4UQ,Tue
Sally Cooke,435,Flat 54o Diane heights Aaronton Bedfordshire B2T 1YN,Thu
Kathryn Williamson-Skinner,436,Studio 56l Holmes bridge North Amandachester Bute L8G 1ST,Mon
Mr. Gareth Davies,437,07 Damien crossing Crawfordmouth Dumfriesshire E3 8BD,Tue
Gemma Norton,438,Studio 13M Anderson summit South Joyceton Gloucestershire HS9Y 4QD,Tue
Ms. Julia Lawson,439,Studio 63 Julian dale Glennmouth Orkney W8D 5GG,Mon
Vanessa Kemp-Ahmed,440,387 Carroll fall Ryanchester Berkshire G0 1BR,Tue
Dr. Helen Taylor,441,Studio 05c Alison islands Patriciachester Greater London G2J 4WW,Wed
Peter Smith,442,Flat 54 Turner summit Lake Yvonne City of Derry S54 6QD,Thu
Mr. Dennis Swift,443,Flat 1 Wyatt fork South Garrymouth Kinross-shire E2 2JQ,Wed
Adam Knight,444,Studio 35 Hale squares Foxside East Sussex WN86 7DW,Wed
Miss Eleanor Turnbull,445,931 Rogers estate Lake Abbieview Essex LS36 0GT,Thu
Chelsea Harris,446,Studio 80 Nicholas skyway West Hazel Kirkcudbrightshire N1 7LB,Tue
Mohammad Cook,447,Studio 57 Harvey path Gemmaland Worcestershire SS6 1DN,Thu
Miss Rita Thomas,448,6 Hughes parks Port Emily Greater Manchester CT6 4UJ,Thu
Alex Walker,449,422 Day canyon East Rogerborough City of Bristol SN7 8HU,Tue
William Lee-Potts,450,03 White hollow Port Dawnview Shetland MK04 7BX,Thu
Ms. Denise Hall,451,Studio 14l Davies haven Lake Natashamouth Berkshire TQ43 1HW,Wed
Dr. Gemma Robson,452,494 Julie roads Lake Bryan Armagh CW4H 2FA,Wed
Sean Sims-Harrison,453,Flat 8 Woodward cliff Jenkinschester Nairnshire KW5P 1FN,Tue
Kathleen Mason,454,278 Amelia via Cherylhaven Down L32 3UX,Thu
Mr. Nigel Thompson,455,Studio 83G Amy cliff Jonathanton Moray W1B 6DA,Mon
Hilary Fraser-Jones,456,Studio 71q Nigel villages Edwardburgh Staffordshire ML1 2TT,Mon
Mr. Mathew Edwards,457,066 Walker mountain Suzannehaven Kirkcudbrightshire E21 3XE,Tue
Tina Elliott,458,Studio 98 Hanson course West Karen Derbyshire SP86 8JE,Thu
Jack Graham,459,9 Thompson lights Garychester Warwickshire HU21 8FZ,Tue
Miss Beverley Bell,460,29 Jill extension Oliverside Moray EC5 8SY,Thu
Dr. Abigail Armstrong,461,Flat 83S Lee meadows Mandybury Surrey G5 3XZ,Mon
Wendy Cook,462,74 Lydia freeway Port Donnamouth Wigtownshire G9J 4QL,Thu
Ashleigh Brown-Allen,463,Studio 73e Jade brook Heathstad Lancashire M82 4SD,Tue
Mitchell Duncan-Patel,464,Studio 23Z White road North Abbie Zetland G00 5QQ,Wed
Joan Duncan,465,Studio 2 Megan court North Gerardberg Tyrone DL66 1RW,Tue
Mr. Carl Daly,466,635 Nicholson falls Burtonport Angus W49 0LR,Mon
Dr. Allan Ford,467,Studio 79W Scott bypass Andrewfurt Dorset M5S 5JX,Mon
Miss Alexandra Gill,468,33 Ellie neck Port Nicholas West Lothian G6 4GJ,Wed
Gemma Smith,469,Studio 33F Marie radial Lake Danielle Cumbria DG8 0DY,Thu
Jessica Newman,470,Flat 84 Moore run Palmerside Caithness PL6 3PH,Thu
Patricia Kelly,471,Studio 69z French heights New Carole Angus NE7A 6SQ,Mon
Mrs. Harriet Williams,472,75 Ben union North Hollietown Kirkcudbrightshire G5 2UZ,Thu
Terence Short-Adams,473,4 Wright path Lake Teresabury Lincolnshire M6 8RE,Thu
Dr. Denis Ward,474,99 Khan ford Powellview Worcestershire M1 9XN,Tue
Mr. Marcus Harding,475,Flat 66 Smith inlet North Terence Antrim S38 0HZ,Mon
Mrs. Brenda Smith,476,710 Ward springs New Ross County Durham N1 9ZS,Wed
Hollie Stewart-Crawford,477,Flat 93R Lane prairie Carolineville Fermanagh HS1 8YD,Tue
David Johnson,478,Studio 22E Lindsey ridge East Elizabeth Nairnshire NE62 5PG,Mon
Stanley Jones,479,72 Long ridge Kingmouth Cumbria W35 3HT,Thu
Marie Jones,480,Studio 8 Howard bypass North Meganshire Midlothian CM0 9HA,Mon
Julian Curtis,481,Flat 76O Denise course Terencehaven Greater Manchester SO2 3PD,Mon
Glenn Price,482,42 Martyn harbors Fordside Essex S8B 4TF,Thu
Kelly Nicholson-Archer,483,Flat 34 Blake extensions Carolview Ayrshire W4 7YF,Tue
Harriet Taylor,484,77 Hayley land Bradleyfurt West Yorkshire N96 4HQ,Wed
Dr. Nicholas Lewis,485,6 Saunders islands Lake Terenceside Bedfordshire B2 4XS,Wed
Mr. Charles Lee,486,42 Adam ramp North Sheilafurt North Yorkshire SK0 4AQ,Wed
Mr. Christian Martin,487,Studio 15 Hewitt path Charlottebury Merseyside NG62 6PL,Wed
Dr. Trevor Brooks,488,797 Sullivan circles Turnerville East Lothian M4U 4RP,Wed
Shane Wright,489,Flat 34g Joan trace Port Jill Tyne and Wear TN78 8NG,Thu
Clive Cook,490,Flat 9 Smith mall Joshburgh Greater Manchester SS6R 1XP,Mon
Zoe Saunders,491,098 Sutton throughway Normanshire Roxburghshire LE50 3PZ,Tue
Abbie Holden,492,Studio 78 Marsden junction West Julianview Banffshire SR5B 1TF,Mon
Ms. Suzanne Brown,493,26 Richardson manors Byrnebury Gloucestershire BR80 0DF,Mon
Rebecca Elliott,494,Studio 16S Barbara plains Coxmouth Dunbartonshire CR5 7GY,Thu
Susan Morgan,495,93 Mitchell brook Ballmouth Kirkcudbrightshire AL2B 5LA,Tue
Mr. Phillip Tucker,496,51 Hilary key New Victoria Shetland B9 6YT,Wed
Bruce Dyer,497,28 Jennifer glens West Garystad Devon M7 6HY,Mon
Sheila Stokes,498,308 Sian shoal Elizabethburgh Moray CF6 1YR,Mon
Dr. Bethany Smith,499,17 Leanne knoll New Richard Somerset DH1X 1QF,Wed
Gerard Dunn-Rose,500,Flat 15y Bennett rapids North Hilarytown Wiltshire S9U 1PG,Thu
John Sims-Richardson,501,536 Reid village West Jeffreymouth North Yorkshire GL6R 9WE,Tue
Samantha Francis,502,47 Shah brooks Jenningsmouth Kinross-shire HR66 4JZ,Mon
Leon Wilkinson,503,Studio 87F Chelsea trafficway New Lindsey Bute N4T 0TH,Tue
Billy Price,504,Studio 64f Harry islands Freemanside Warwickshire WD46 1XN,Tue
Dr. Natalie Wright,505,14 Darren burgs Goddardberg Argyll NR4 8TD,Mon
Diana Lucas,506,105 Kate plaza New Nicoleberg City of Derry RM20 3WE,Wed
Mr. Gerald Jones,507,95 Khan views Gordontown Renfrewshire S0 5DQ,Mon
Natalie Tomlinson,508,Flat 99 Williams forges Lukefurt City of Derry W2 6FT,Mon
Catherine Matthews,509,Studio 6 Lynda route Naylorborough Inverness-shire W20 5PY,Wed
Mr. Martin Hawkins,510,143 Max path Barlowchester Derbyshire CB12 9SX,Thu
Dominic Davies,511,Studio 6 Chambers village Lake Lucyfort Northumberland WN63 5GS,Tue
Dorothy Adams,512,Flat 4 Douglas valleys West Guy East Lothian BL67 5EH,Mon
Mrs. Debra Shaw,513,Studio 16 Gregory shoal Leesstad Leicestershire SP67 5SD,Thu
Clive Williams-Roberts,514,47 Danielle stravenue Neilhaven Perthshire M85 2YA,Wed
Max Atkinson,515,7 Kent divide Charlenefort North Yorkshire NE9H 6FB,Tue
Lucy Jenkins,516,126 Brennan wall Cliveberg Londonderry L2 0JG,Wed
Leon McDonald-Ryan,517,64 Akhtar lakes Janetbury Devon SL5 1GF,Thu
Sarah Davies,518,484 Parkes center Port Stacey Banffshire LE4A 5QF,Tue
Mr. Benjamin Naylor,519,Flat 61 Schofield manors North Jennifer Lancashire W12 2AE,Mon
Naomi Chapman,520,Studio 1 Terence lakes Petersshire Sutherland LE3W 5FJ,Tue
Francis Jenkins,521,0 White plains Lake Francescashire West Sussex W75 9ZB,Mon
Maurice Thomas,522,399 Ann trafficway Ambertown Nottinghamshire CF1 6ZG,Thu
Denise Knight-Schofield,523,2 O'Brien bridge Franklinport North Yorkshire BS3B 8JD,Tue
Mr. Nathan Kelly,524,61 Williams run Mandytown Caithness WV6 3NW,Mon
Martin Webb,525,81 Pamela causeway Taylorhaven Merseyside BR4 1XZ,Thu
Mr. Norman Griffiths,526,620 Duncan spur West Aimeefurt Tyrone W91 6UY,Mon
Aimee Taylor-Harrison,527,Flat 62 Emma terrace Port Joanneview Shetland DH84 0JX,Wed
Elizabeth Ahmed,528,Studio 77 Julian underpass North Stanley South Yorkshire RM8N 4NX,Tue
Douglas Lucas,529,114 Andrew harbor Martynhaven Merseyside E8 1QF,Mon
Mrs. Rebecca Barker,530,Flat 37 Taylor mountains Trevorton Tyne and Wear PO1M 8DE,Mon
Dr. Richard Howard,531,289 Russell hills Karenside Wiltshire CA41 2DN,Thu
Jamie Wallis,532,"268 Hall walks Jademouth Yorkshire, East Riding HU9H 7NS",Mon
Dr. Alice Turner,533,931 Brian parkway Sallyfurt Kincardineshire KA3X 7QS,Thu
Brian Dean,534,Studio 69 Gerald haven East Daniel Kent PH13 1TQ,Tue
Brian White-Fry,535,Studio 80C Ricky crossroad Port Lewisside Buckinghamshire N32 5GB,Thu
Julian Jones,536,Flat 81R Frank extension Littleton Inverness-shire HD7 6QR,Thu
Nathan Smith,537,61 Leonard gardens Khanfort Stirlingshire N33 1NL,Mon
Luke Marsh,538,39 Gordon ranch Gouldtown Shetland DD3M 5FR,Tue
Gordon Rogers,539,Flat 8 Steele glens West Gailberg Northumberland WS7Y 2JA,Thu
Miss Kim Richardson,540,27 Leanne pass North Damian Suffolk M7H 5GY,Tue
Jean Schofield,541,Flat 80 Wood ports Rebeccaside Leicestershire L76 1ZD,Wed
Glen Miller-Evans,542,963 Watkins pass Billyville Cheshire G08 9WN,Mon
Georgina Smith,543,Studio 57 Stanley place Humphreysview Dunbartonshire CV45 2TT,Wed
Lee Parkes-Thornton,544,2 Joan loaf Jessicastad Antrim E8 8GP,Wed
Joel Smith,545,099 Summers corners Rogerborough Moray B8 5ST,Mon
Norman White,546,Studio 93 Kelly street Matthewsfort Northamptonshire PR75 7HD,Tue
Dr. Melissa Wright,547,873 Elizabeth parkway Port Aimeeberg Buckinghamshire G8W 0FA,Mon
Dr. Dennis Wood,548,68 Pollard mission Sianport Gloucestershire G3B 9RP,Tue
Conor Murray,549,Flat 20T Dennis lane Davisfort Midlothian ME88 8LT,Mon
Mr. Robert Jones,550,2 Smith well East Frankfurt Moray LS70 8ZJ,Wed
Dr. Duncan Roberts,551,77 Darren cliff Eileenchester Roxburghshire SO0M 2XY,Thu
Mr. Donald Wells,552,96 Janice tunnel Oliverchester Herefordshire B8J 6ZT,Thu
Frederick Stokes,553,3 Harriet flat South Donna Rutland WD14 6ZY,Mon
Mandy Brooks,554,3 Robertson meadows Julieview Shetland N7U 6BN,Wed
Clive Palmer-Marshall,555,10 Declan brooks Lake Catherinemouth Bute LA47 9SR,Thu
Elaine Ford,556,Studio 6 Patricia grove Lake Lindaville Selkirkshire G22 8RY,Thu
Hayley King-Francis,557,43 Denise harbors Campbellport Herefordshire S5 0TT,Tue
Mrs. Zoe Bentley,558,069 Mistry plaza Barbaraport Renfrewshire E1 4QT,Thu
Mrs. Anna Fletcher,559,79 Alexander mews Stevenston Londonderry PR3A 4SY,Mon
Lauren Savage,560,Studio 32 Day rue West Franceshaven Bedfordshire MK09 0XE,Wed
Justin Hunt-Pearce,561,004 Lloyd manor New Cherylfort Shropshire W4 7JA,Wed
Katie Norman,562,Studio 11 Taylor ranch Petersfurt Lanarkshire SN4 9BN,Wed
Dr. Barry Thompson,563,Flat 08 Hall green Stephensonfort Berwickshire ML17 0QY,Tue
Dr. Ryan Young,564,"Flat 37B Ann creek Port Trevormouth Yorkshire, East Riding W2G 1QQ",Mon
Ms. Emily Cole,565,064 Michael bypass East Michael Warwickshire CO32 1LZ,Wed
Dominic Kemp,566,359 Brown spur Hudsonborough Oxfordshire B2 3WZ,Thu
Martin Jones,567,Flat 32w Owen lane South Deniseland Kent LL21 1ZW,Mon
Dr. Jay Porter,568,06 Green cliffs Abbieville Lancashire HG6Y 8WX,Wed
Dylan Cartwright,569,Flat 70c Guy creek Gillianside Somerset N75 3AE,Wed
Julian Ashton,570,Flat 65 Rosie mountain East Julianmouth Kincardineshire G5 4TZ,Mon
Mohammad Davies-Smith,571,Flat 6 Yates island Lake Louishaven Inverness-shire PL6 5GH,Thu
Ronald Wilkinson,572,Flat 2 Lewis coves Carolinebury Rutland BR4A 8DW,Mon
Howard Bennett,573,Studio 34R Thomas passage Mohammadton Oxfordshire NE8N 7YA,Wed
Diana Hill,574,Flat 9 Sam ford North Claireport Northumberland CW89 8LF,Mon
Mrs. Laura Williams,575,Studio 95 Mills orchard Samuelview Ayrshire RM8 5RJ,Mon
Jamie Cook,576,Studio 04 Kieran plain New Albertburgh Ross & Cromarty M9 4XP,Mon
Mandy Stanley,577,Flat 47l Vincent spring Stevensbury Nottinghamshire S1D 7FJ,Mon
Dr. Lauren Thomson,578,2 Lydia flats East Janeshire East Lothian E4B 9LF,Mon
Jill Brown,579,Studio 22 Clarke canyon Teresaport Buckinghamshire IV13 8RY,Thu
Mr. Joshua Moran,580,Studio 29 Jones glen Joycechester Inverness-shire S9H 0JT,Mon
Olivia Hamilton,581,Flat 99Z Reeves glens Port Brandonmouth West Sussex LL1 4PG,Wed
Hannah Bryan,582,Studio 7 Hall ports East Dominicfurt City of Bristol KY94 4YT,Mon
Charlene Taylor,583,Studio 12g Jason mission Frostmouth Stirlingshire PH8 8TY,Mon
Tom Jones-Bailey,584,3 Kelly dam Port Damien Bute B2K 8WS,Tue
Mr. Mohamed Booth,585,6 Payne union Maureenborough North Yorkshire M91 7AG,Mon
Lauren Thomas,586,2 Williams village Naomiborough Lanarkshire ST9R 9ED,Tue
Jade Woods,587,Studio 02R Green village Carolynbury Zetland E2U 7BD,Thu
Mohammed Gill,588,Flat 96E Brown summit New Frederick Shropshire W2J 3QN,Wed
Gemma Parker-Williams,589,Studio 43C Williams pines Wattsstad West Lothian PA9 9TX,Tue
Susan Kay,590,Studio 47w Chamberlain springs North Ruthhaven West Lothian L9A 8PQ,Tue
Terence Burgess,591,Studio 13 Gary mews South Francesca Inverness-shire SA6N 2BQ,Thu
Dr. Gerard Chapman,592,63 Joanna springs Leonhaven Warwickshire B5F 2XQ,Thu
Justin Reynolds,593,Studio 8 Catherine plains Shannonton East Sussex SN1A 0FN,Mon
Sheila Perry,594,48 Russell ports Fletcherberg Surrey W5 6WD,Mon
Sharon Harrison-Morgan,595,88 Anthony creek Kimberleymouth Antrim LE4E 5QR,Wed
Natalie Patel,596,47 Sophie inlet Newmanport Dumfriesshire CB1V 6XH,Tue
Gerard Pugh,597,Flat 25q Frederick branch Daleborough Inverness-shire M6 9TB,Wed
Malcolm McKenzie,598,57 Chandler loaf North Colin Ayrshire W01 7WH,Mon
Mr. Ross Taylor,599,Flat 13 Jason port Lake Sharon Cheshire G1 4JT,Thu
Ms. Yvonne Taylor,600,Flat 67 Watson spur Carterfort Down TS6 2EY,Thu
Callum Lewis,601,627 Jill estate North Anna City of London BR4 1YR,Mon
Marilyn Wilson,602,Flat 71 Brennan prairie Normanchester West Sussex ML89 4XW,Wed
Francis Evans,603,284 Katherine wall Teresaview City of Derry TW26 8AN,Mon
Dr. Damien Dale,604,Flat 78 Danny mews Chadwicktown Suffolk RH7 5ZX,Thu
Lee Smith,605,Flat 78 Daniel terrace Adamport Merseyside S2J 3GH,Thu
Bryan Gregory,606,Flat 60D Dale neck South Frederick Inverness-shire N6 7GD,Thu
Damian Ford-Nolan,607,Flat 04R Antony bridge Smithstad Norfolk IG2 4BX,Thu
Mrs. Barbara Clark,608,Flat 64 Hunter burg Kirstybury Somerset CH7 7GS,Thu
Dr. Shane Gilbert,609,Flat 3 Graham unions Greenton West Sussex LN44 5LN,Wed
Gillian Perry-Scott,610,1 David knoll West Valerie Argyll UB6X 5XR,Mon
Jane Palmer,611,Studio 63U Lydia walks North Kayleigh Inverness-shire TS7B 8QJ,Wed
Emily Wright,612,Flat 94E Woods ranch Markfort Surrey BD35 1SX,Thu
Cheryl Jones,613,Flat 68O Ellis plaza Port Marcchester Tyrone CV74 3DF,Thu
Dr. Harry Jackson,614,9 Johnson extension West Michellestad Northamptonshire SL5 7FU,Thu
Leigh Porter-Evans,615,Flat 7 Johnson curve South Samanthaborough Caithness L01 4QT,Thu
Dr. Rachel Hancock,616,79 Chelsea mount Robertburgh Hampshire B3W 3GE,Mon
Dr. Marcus Reed,617,640 Duncan port West Judithshire Londonderry B4 1LU,Wed
Mrs. Josephine Mills,618,Flat 2 Antony junctions Taylorshire Gloucestershire E2 2HA,Mon
Clifford Wells,619,Studio 76 Elliott wells Holmesberg Hertfordshire N55 9BR,Thu
Damien Harper-Evans,620,Flat 5 McLean crossroad New Joyceburgh Oxfordshire W50 0SG,Thu
Joshua Harrison,621,8 Williams mountains East Duncanbury Greater Manchester TS31 5QH,Tue
Katherine Gibbs,622,7 Smith motorway North Hilarychester County Durham W60 4UL,Mon
Fiona Nicholls-Green,623,Studio 04Z Bowen port Lake Gerardton Warwickshire SM1 4QZ,Tue
Helen Thomas,624,81 Ben square South Sandratown Down WF4 5TZ,Wed
Mr. Samuel Barlow,625,980 Toby fall North Naomiville Sutherland B5S 4UB,Mon
Marc Page,626,Flat 5 Brian brooks Debraland Selkirkshire G69 7SR,Tue
Mr. Elliott Lynch,627,Flat 05 Teresa junctions South Katieport Dorset RM8X 5TQ,Wed
Max Henderson-Berry,628,5 Miah parkways New Kim City of Bristol AL1 2YP,Mon
Antony Williams,629,Flat 00F Amber mission East Owenchester City of Derry EC94 0UX,Wed
Dominic Wallace,630,Studio 0 David coves Dorothyton Lancashire SG03 7TF,Tue
Jemma Berry,631,Flat 8 Dawson spurs Welchfurt Tyrone HX8Y 1RB,Tue
Mr. Robin Holmes,632,072 Matthew meadow Cooperfurt Lanarkshire CV5B 8ZX,Thu
Glenn Bell-Murray,633,0 Maria park East Malcolm Berwickshire W1 7BL,Wed
Robert Hargreaves,634,Flat 62 Richard corner Colinhaven Wigtownshire EC8 7NG,Thu
Lee Jarvis,635,Flat 1 Pearson fords Joeborough City of Derry SR3 4BZ,Mon
George Khan,636,263 Brandon spring Butlerstad West Midlands IG5 2YF,Tue
Mr. Clive Williams,637,Flat 83o Marshall road Marshallland Shetland RH1 3DW,Wed
Anna Lucas,638,Studio 26l Cross cape Mariafurt Dunbartonshire OX2 9JH,Wed
Ms. Kerry Wright,639,Flat 69 Marion locks Alexanderport Kirkcudbrightshire G13 2GZ,Wed
Dr. Colin Sykes,640,07 Dale fall North Robert West Lothian L4D 5WH,Tue
Roger Roberts,641,Studio 05d Jordan stravenue Lake Clivechester Down E45 0QN,Mon
Richard Collins-Cook,642,Flat 16Q Powell lake North Melanie Down KA9W 9XJ,Thu
Elliott Parry,643,6 Jones islands Graceberg City of Derry W2C 4WF,Mon
Mr. Brett Thomas,644,740 Burgess route Gibbonsberg Moray E9 9BE,Tue
Victor Ellis-Hussain,645,Studio 90P Rogers motorway Lisaland South Yorkshire L9 4YE,Thu
Anna Blake,646,54 Ronald cape Vanessaland Angus LU1H 1AP,Thu
Stephanie Dixon-Porter,647,695 Morgan corners Fletcherburgh Bute E3 6QB,Wed
Joanne Jones,648,509 Angela villages North Francis City of London EN5 7UQ,Wed
June Foster,649,38 Morgan pike Mitchelltown Kirkcudbrightshire TN59 8NU,Wed
Megan Stephenson,650,3 Gray fall South Kellyshire Cornwall LA2X 0FX,Thu
Dr. Patrick Allen,651,7 Scott overpass Lake Albert Derbyshire DN8V 2UY,Wed
Peter Campbell,652,Flat 62 Reeves mission East Katiefurt Derbyshire G5 9PF,Tue
Julie Jones-Crawford,653,Flat 70 Jones throughway O'Neillmouth Hampshire SY69 1EA,Tue
Ruth Harrison,654,23 Marie inlet Swiftport Ross & Cromarty BB3B 3FE,Tue
Fiona Holloway,655,Studio 56 Taylor springs Port Declan Sutherland HG39 6PA,Thu
Jodie Dale-Mann,656,19 Katherine manor Port Georgia Fermanagh M86 2FA,Wed
Maureen Miller,657,Studio 29 Smith ferry Wardberg Hampshire L5 2QE,Thu
Dr. Mohamed Woods,658,08 Dale stream Port Shaun Leicestershire N7C 6RP,Mon
Elliot Morgan,659,Studio 8 Simon crossing North Staceyton Moray RH5 9ZF,Wed
Dominic Turner,660,Studio 1 Hughes station East Garyberg Selkirkshire E3A 5JU,Tue
Marie Wilkinson,661,8 Davies views New Tonyton Isle of Wight DD30 9DE,Wed
Dr. Jonathan Griffiths,662,237 Lawrence path Baileyhaven West Midlands B79 7GA,Tue
Margaret Lee,663,1 Archer brook East Glen Dumfriesshire LN60 0UF,Mon
Kathleen Edwards,664,8 Hannah cove Lake Anne City of Derry TR16 3QW,Wed
Hollie Ferguson,665,Flat 26 Amelia summit Frankton Angus SG8 1XB,Mon
Julia Shaw-Brown,666,442 Lydia lakes West Hazelview Dunbartonshire HD4W 8FU,Thu
Jodie Simmons-Carr,667,Studio 60k Richard well Fosterberg Midlothian B39 8YQ,Tue
Christine Barnes,668,Studio 5 Andrew manor Davieschester City of Derry HA60 2QU,Wed
Ms. Tracy Davey,669,058 Katy squares South Jack Renfrewshire WV64 6PJ,Mon
Dr. Richard Jones,670,8 Thomas point Anneburgh Nottinghamshire BH18 9RU,Wed
Justin Pratt,671,263 Rees hills Saraberg Selkirkshire LA5Y 7EJ,Tue
Maurice Hayward,672,0 Charlene extensions Port Jemma Lanarkshire NE3 9AE,Thu
Ms. Gail Patterson,673,Flat 04 Miah cliffs Port Colin Orkney NW1B 0LD,Tue
Mr. Robin Anderson,674,56 Bethan brook Gailland Dorset HS73 9AH,Wed
Jessica Butler,675,7 Thompson valleys West Jenniferbury Inverness-shire LS8B 3UA,Thu
Jack Simpson,676,Flat 0 Reece fork New Gary Rutland G27 5RP,Mon
Aaron Stephenson-Davies,677,Studio 1 Justin rapids Iantown Wigtownshire OX0 6EG,Thu
Lynn Barlow,678,1 Geoffrey pass West Louis Herefordshire L34 3SS,Tue
Joanna Young,679,6 Parkin locks Lyndaton Orkney L3G 4EL,Mon
Dr. Gemma Talbot,680,Flat 16G Toby drive North Kyle Hampshire W2 7UA,Tue
Mrs. Bethan Cooke,681,0 Abdul plains West Malcolm Stirlingshire SL4M 1PW,Thu
Miss Emily Richardson,682,88 Lindsey port South Marionshire City of Belfast S75 4EJ,Wed
Marc Morrison,683,66 Frances stravenue Browntown Kirkcudbrightshire W6 0BL,Mon
Barry Howard,684,Flat 0 Lindsey harbor East Rita Buckinghamshire M5 1DT,Mon
Dr. Phillip Stevens,685,1 Mahmood hollow New Kimberleyside Nairnshire HR0 7WL,Mon
Charlotte Peacock,686,78 Goodwin glens Connorfort Greater Manchester PA0M 4YB,Mon
Mr. Martyn Taylor,687,Studio 84 Hanson plain Smithtown Lincolnshire BD1P 4UJ,Thu
Dr. Billy Archer,688,Flat 86Z Denis crossroad Lauraborough Dunbartonshire UB6 7ZT,Tue
Josh Henry,689,Studio 33 Alex rue Martinton Northamptonshire NG0Y 6AR,Tue
Mrs. Beth Green,690,4 Carl orchard New Lindatown Cheshire HU13 2YB,Wed
Martyn Parsons,691,0 Hamilton extensions Ashleyborough Perthshire G5 5XG,Wed
Olivia Wilkinson-Willis,692,8 Griffiths club West Gerardfort Norfolk E03 1PW,Tue
Miss Yvonne Taylor,693,Studio 69 Chandler drive New Robinstad Bedfordshire G3 4XW,Mon
Patrick Fox,694,469 Francis plains Stevenchester West Sussex RM1 3GW,Mon
Molly Humphries,695,Flat 6 Ryan alley East Luke Renfrewshire N68 7FG,Tue
Joe Jones,696,Flat 1 O'Donnell track West Graham North Yorkshire M9J 9ZJ,Mon
Mrs. Claire Dawson,697,Flat 0 Mohammed radial Hollowayhaven Berwickshire TN1 8AY,Tue
Gerard Howe,698,909 Carter shoal Lawrencefurt Lincolnshire N7 0DR,Thu
Kerry O'Connor,699,05 Josh trace Newmanmouth Stirlingshire B6 9JZ,Tue
Bernard Adams-Flynn,700,Flat 0 Antony lock Hussainfurt Cornwall NG6 4HH,Mon
Dr. Graeme Jackson,701,Flat 93u Victor circle North Owenfurt Kent E3 3WW,Wed
Dr. Irene O'Neill,702,8 Parsons stravenue South Zoe Hertfordshire SY5 4XH,Wed
Ms. Samantha Hancock,703,2 Sam plaza North Louis Derbyshire L1 2ZS,Wed
Gemma Francis,704,Flat 1 Jones circle Reidton Fermanagh W74 4QH,Mon
Mary Powell,705,Studio 57r Bishop valleys West Janetbury West Sussex N45 2NT,Thu
Roger Lewis,706,Flat 83P Rosie estate Jacksonland Stirlingshire TN4 6PD,Wed
Samantha Jones,707,Studio 10x Kim pine Port Joshua Aberdeenshire NR9 2TU,Tue
Dylan Butcher,708,724 Anthony summit West Kimberleyville Dumfriesshire ST8B 9SQ,Wed
Dr. Barry Harris,709,4 Albert path Port Carole Lancashire B2D 4HX,Tue
Edward Gould,710,Studio 20Y Cooper loop Vaughanborough Rutland HR71 5FN,Wed
Jane Ferguson,711,Studio 95 Gibson heights New Josephine Derbyshire S77 6PH,Mon
Patricia Bird,712,42 Tracy green East Guy Down E9C 0LG,Thu
Mrs. Jean Evans,713,5 Joanne extension Clarkebury Cheshire W92 7EN,Tue
Connor Pope,714,Studio 71 Goodwin ramp Lake Joseph Armagh CT0 0WA,Tue
Geraldine Collins,715,Studio 2 Thomas flat New Jennifermouth Shropshire ME22 3PT,Thu
Charles Hartley,716,Flat 1 Reynolds mountains Stephensonmouth West Yorkshire SA31 8BZ,Mon
Mr. Christian Phillips,717,Flat 20g Christian lakes South Damian Cheshire HR3V 2JQ,Tue
Neil Gregory,718,Flat 63 Craig forge East Hazel Surrey S54 4HQ,Wed
Marion Hudson,719,488 Sean port South Anthonybury Stirlingshire G2A 4WL,Tue
Sandra Mitchell-Walsh,720,26 Hugh grove Amyview Midlothian B71 7UR,Tue
Miss Debra Smith,721,9 Matthew island New Anthony City of London L2W 7XN,Tue
Neil Phillips,722,075 Peter ridge Woodside Dorset BH55 2XQ,Wed
Clare Thompson-Knight,723,275 Lynn mission Amyshire Sutherland G6 4YJ,Tue
Simon Smith-James,724,Studio 62b Carol hill North Cliffordmouth Suffolk W20 7HX,Thu
Miss Jacqueline Richards,725,Flat 94M Powell pike Port Robert Berkshire W3U 7YS,Tue
Philip Archer,726,41 Eric tunnel East Craigshire Kinross-shire S46 7HF,Tue
Dennis Marsh,727,3 Scott track Lake Hollyfort Leicestershire S1D 5DL,Wed
Rhys Knight,728,163 Leah stream South Chloe Berkshire SL70 2UL,Mon
Mr. Terry Robson,729,2 Baxter village Webbside City of Belfast EN9X 8DF,Thu
Barry Wilson,730,642 Jacob isle South Ronaldton Kinross-shire S6J 3XH,Mon
Wayne West,731,Flat 68 Cameron knolls Greenwoodshire Bedfordshire L0 4FQ,Wed
Gillian Wilson,732,04 Francis pass Lake Ashleigh Buckinghamshire NR94 1AT,Mon
Rita Smith,733,1 Ahmed hill Port Rhysbury Moray BT1W 5UZ,Tue
Karl Matthews-Cooper,734,Studio 69L Butler union Lake Bethanville Worcestershire EC6 8YE,Mon
Liam Wilson,735,052 Gray inlet Lake Roy Dumfriesshire DT2M 1ZH,Mon
Roy Perry-Gilbert,736,13 Hannah streets West Janice Somerset S1 5ZB,Tue
Roger Gray-Bryant,737,3 Rose drive Lake Jemmamouth Isle of Wight N91 4YX,Thu
Patricia Goodwin-Leonard,738,Studio 50 Danielle throughway South Cliffordville Berwickshire L62 3YJ,Wed
Mr. Guy Mitchell,739,Studio 4 Parker mountains East Katherine Peeblesshire N7J 6DJ,Mon
Shannon Murphy,740,971 Dyer locks West Aimeemouth Inverness-shire E75 0AU,Wed
Mr. Damian Jones,741,2 Frederick park Tylerville Clackmannanshire E3F 8YS,Wed
Elaine Jackson-Hodgson,742,Studio 4 Marie route East Katieton Kinross-shire W66 5EQ,Thu
Mrs. Paige Jones,743,179 Jordan wells Ellisfurt Leicestershire N4A 3UL,Tue
Carole Griffiths,744,598 Hunter mountains Marshhaven East Lothian M3W 4YZ,Wed
Miss Maria Williams,745,Studio 9 James cliffs Steeleton Inverness-shire W0 3PT,Tue
Ms. Sally Akhtar,746,Flat 65 Young walk Rahmanborough Fermanagh MK75 8DQ,Mon
Amy Smith,747,90 Jay via South Rickymouth Herefordshire L83 0BZ,Mon
Gavin Dawson,748,676 Murphy flat East Lynne Devon ME4 9BN,Wed
Bethan Phillips,749,717 Dawson tunnel West Deborah Orkney B9 6WT,Mon
Anthony Ahmed,750,Flat 36D Hilary haven West Peter Caithness E83 4BS,Mon
Jemma Howarth-Jones,751,Studio 93 Burrows loaf Lake Samuelburgh Wigtownshire B0J 4UN,Mon
Hayley Lowe,752,Flat 02 King turnpike New Duncan West Lothian S8 3AB,Thu
Sophie Carpenter-Godfrey,753,Flat 12U Robin haven Port Eileen West Sussex BN4W 0QX,Wed
Nathan West,754,05 Brown estates New Katie Dumfriesshire SE3 0PW,Mon
Dr. Darren Day,755,Studio 0 Scott union East Melissahaven Staffordshire N92 1FN,Tue
Sam Rees,756,Flat 78 Amber mall West Francesland Angus N62 4TZ,Wed
Bradley Spencer,757,23 Carly throughway Geraldinemouth Kincardineshire M8 2FX,Mon
Danny James,758,Flat 62o Kerry light East Bryan County Durham N5G 5HG,Tue
Jacob Williams,759,Studio 38f Gareth garden Burketon Fermanagh S1J 6YS,Thu
Lynne Atkinson,760,Studio 62 Howard overpass Wilkinsfurt West Sussex WA3E 7ET,Wed
Marc Reed,761,707 Keith islands West Dean Rutland S8U 2PG,Tue
Kirsty Ellis,762,613 Fisher turnpike Samanthamouth Wigtownshire GY0 9ED,Tue
Charles Miller,763,Studio 13 Janice trail Port Dannyview Cumbria UB5 1TL,Wed
Dr. Patrick Taylor,764,Flat 13e Katherine underpass New Matthew West Sussex DN60 9QQ,Tue
Maureen Smith,765,Studio 80 Victor mountain Oliverhaven Caithness IV52 1QX,Mon
Abdul Wilkinson,766,254 Holmes shoal Lynneport Surrey MK9 6DE,Wed
Dr. Gary Bevan,767,3 Alison locks Gordonfort Lincolnshire L6 0BE,Tue
Dr. Marion Johnson,768,2 Jones highway East Jadeburgh West Sussex CA3Y 7DS,Tue
Allan Robertson,769,1 Patricia mall Gallagherberg Dunbartonshire W33 3YS,Thu
Josh Knight-Ahmed,770,72 Mohamed meadows East Shannon Merseyside BB70 3SU,Thu
Beth Williams,771,5 Simon stravenue Osborneland Berkshire SK49 5BR,Wed
Mr. Neil Hughes,772,Studio 4 Roberts drive East Sara Isle of Wight GY9 4LE,Mon
Cheryl Birch,773,749 Hopkins station West Shane Shropshire G0 5QS,Thu
Dr. Bernard Campbell,774,956 Eileen coves Lake Benjaminville Cheshire RG12 6EP,Tue
Chloe Hilton,775,730 Allan wall Boltonborough Kent W65 0ST,Thu
Leah Rose,776,9 Brennan islands Phillipberg Clackmannanshire NR06 1PA,Thu
Allan Turner,777,Studio 07O Swift forges Joshville Merseyside RG26 0JU,Mon
Gareth Newton-Wright,778,Studio 8 Deborah expressway Port Aimeemouth Ross & Cromarty ST3 1FH,Tue
Ms. Fiona Edwards,779,44 Richardson stream Lake Christopher Oxfordshire OL72 4RB,Thu
Shane Taylor,780,2 Guy turnpike Port Mauricechester Herefordshire WC6 9LT,Thu
Andrea Davies,781,Studio 91 Miles wells Maxchester Berwickshire B30 8GQ,Tue
Victor Banks,782,Flat 0 Price light Gordonstad Dumfriesshire N2 7EP,Tue
Kenneth Grant,783,Flat 91y Martin tunnel Evansmouth Cambridgeshire G06 6WY,Mon
Ms. Carol Begum,784,7 Gordon flat West Michellemouth Herefordshire NN7 5XE,Wed
Miss Tracy Jones,785,Flat 54f Rosemary shoal Jaytown City of London E65 1ZD,Tue
Ms. Rosemary Matthews,786,69 Charlene radial Lake Lynn West Midlands CT27 5DU,Thu
Ms. Samantha Arnold,787,Studio 29 Stewart stravenue Lake Elliottfurt Tyne and Wear TA13 5XN,Wed
Mr. Adam Matthews,788,Studio 61 Metcalfe tunnel Hollyburgh Moray MK5 4QX,Thu
Wayne Harrison,789,Flat 0 Duncan keys Williamstown Wigtownshire TR89 9TH,Wed
Dylan Faulkner,790,74 Page radial Port Samfurt West Yorkshire WV5 3FD,Thu
Gregory Mitchell,791,82 Mitchell hill East Rebeccastad Rutland E41 2AH,Thu
Dr. Louis Clarke,792,Flat 8 Edward drive West Jamiehaven Lanarkshire M5G 9PF,Thu
Miss Jessica Norris,793,Flat 5 Turner corners South Sallyview Dunbartonshire WC4P 0LH,Mon
Anthony Butler-Hill,794,994 Owen shores Vincentview Derbyshire EN5 3RS,Tue
Mohammad Bennett,795,Flat 16y Diana mews Williamsview Ross & Cromarty TQ1B 2NE,Mon
Jenna Reed-Moore,796,97 Bryant inlet Nataliefort Kirkcudbrightshire UB46 1UJ,Thu
Mr. Alan Wood,797,Flat 6 Connor prairie Jeanview Greater London KA3 9NE,Tue
Jonathan Perkins,798,Flat 94 Mahmood neck West Sarah West Midlands M3 0UU,Mon
Mr. Derek Edwards,799,Flat 19O Katherine mews East Aliceland Hampshire W4U 4DX,Mon
Nicholas Taylor,800,Studio 9 Eileen grove Jenniferberg Londonderry IM6V 0QN,Thu
Pauline Lewis,801,Flat 1 Sandra shores South Hughburgh Midlothian E45 1TP,Thu
Dr. Michael Marsh,802,485 Denis mountains East Victor Bute EX74 4FB,Thu
Deborah Barker-Adams,803,53 Vanessa circle Gordonchester North Yorkshire B1J 9LB,Wed
Dr. Ashleigh Adams,804,Studio 27w Rebecca views Jordanborough Orkney L31 5QH,Mon
Jill Ashton-West,805,Flat 4 Palmer canyon Nathanshire Fermanagh N7 2JX,Thu
Hazel Walsh-Robinson,806,Studio 57m Davis spur North Benjaminborough Herefordshire L5 0DH,Thu
Josh Morris,807,Flat 5 Hussain skyway Raymondshire Northumberland NP71 8BQ,Thu
Liam Smith-Lane,808,31 Hancock garden Wilkinsonshire Herefordshire MK0W 5RS,Wed
Carole Rice-Wood,809,3 Abbie fort West Brandonside Fife BH8 9EU,Tue
Damian Palmer,810,0 Connor harbors New Marc Suffolk E9T 2JA,Tue
Timothy O'Donnell-Allan,811,"Flat 56u Glen pass Melissaburgh Yorkshire, East Riding HX4E 1NX",Wed
Carolyn Stewart,812,Studio 37z Heather point South Brendaburgh Kirkcudbrightshire L48 1GW,Thu
Mr. Jay Simpson,813,35 Willis fork North Colin West Midlands M93 2BP,Tue
Howard White,814,012 Alex path North Graeme Fife N9F 5TL,Wed
Garry Pritchard,815,28 Stewart stravenue New Damian Bute N5C 2SP,Wed
Duncan Davies,816,Flat 15 Taylor harbors South Conor Armagh N33 8BR,Mon
Dr. Clive Wood,817,Studio 8 Frederick gardens North Norman Lanarkshire N0 4XR,Mon
Mitchell King,818,691 Gerald springs South Lucy Surrey DA2M 3NR,Thu
Eileen King,819,Flat 35 Davey port Connormouth East Sussex KA9E 7EQ,Thu
Ashley Brown,820,Flat 88 Stephen harbors Richardsonshire East Lothian SM4 6QB,Tue
John Marshall,821,"775 Buckley field West Alexanderchester Yorkshire, East Riding CF1 2XD",Mon
Henry Crawford,822,8 Carter road South Sarah Stirlingshire L73 4JW,Thu
Molly Pearson-Barnes,823,16 Lewis dam Fostershire Oxfordshire L5 9TB,Wed
Dr. Fiona Gordon,824,92 Amelia view Sammouth Caithness HR72 7SE,Thu
Rosie Collins,825,Flat 6 Catherine oval East Leahshire Herefordshire BS3 7BB,Wed
Mr. Brett Marshall,826,728 Kathryn ports Burtonside Banffshire N86 5HD,Wed
Dr. Olivia Randall,827,501 Kelly spring West Mathew Dunbartonshire TW86 4UY,Wed
Alan Brown,828,50 Aaron locks East Joshua Lincolnshire YO4 2DQ,Tue
Gordon Wilson,829,231 Davison ways Douglasview Perthshire ST2 7FB,Wed
Dominic Clarke,830,Studio 39t Hunter landing Iainmouth City of Derry N6 9RT,Wed
Charlene Morgan-Brown,831,Studio 76N Hilary streets Lake Gordon West Lothian NR1Y 6DE,Tue
Lauren Chan-Roberts,832,099 Shepherd crescent Lake Geoffrey Merseyside B3K 4QE,Wed
Shirley Whitehead,833,Studio 6 King port Griffithsville Roxburghshire BB8A 5QP,Mon
Christian Clark,834,Studio 47T Turner coves Frankfurt Ross & Cromarty IP85 9ET,Tue
Dr. Tracey Hodgson,835,Studio 01e Dunn fields North Jamie Dorset B5D 7FS,Tue
Alexandra Taylor,836,623 Slater station Rosemaryburgh Wiltshire W95 1EJ,Thu
Mr. Christian Lewis,837,"00 Dawson estates South Terry Yorkshire, East Riding E5W 9ZQ",Wed
Ricky Owen,838,6 Terence alley West Benjamin Hampshire LD6 4AT,Thu
Lewis Owen-Harris,839,06 Victor estate Clarkebury East Lothian SS46 3FG,Tue
Mr. Raymond Hall,840,Studio 26O Lewis plains Higginsville Down G10 7PU,Wed
Liam Cooke,841,196 Brett views New Paulborough West Yorkshire L4F 4HQ,Wed
Anna Saunders-Lawrence,842,6 Stephenson summit Lake Tomside Angus E1E 1AB,Tue
Allan King,843,Flat 26 Smith flats Port Jacquelinehaven Angus ZE84 0TS,Tue
Sheila Burgess,844,5 Russell forks Steeleshire Berkshire WV8 0GQ,Wed
Dr. Vanessa Day,845,954 Bradley landing Whitebury Kirkcudbrightshire G84 8HN,Thu
Mrs. Amelia Smith,846,Studio 45v Jeremy crossing Waynehaven Suffolk B88 3FJ,Wed
Charlotte Houghton,847,37 Rita plain East Kyle Fermanagh IV76 2ZH,Mon
Dean O'Brien,848,Studio 2 Hilton drive East Jordanview Greater London E7 9NY,Mon
Iain Mahmood,849,61 Mohammad mountains North Barry Wiltshire BH3W 1YG,Wed
Caroline Parsons,850,54 Shaun trafficway South Meganport Hertfordshire IV0X 8DF,Wed
Dr. Andrew Lawson,851,79 Ward turnpike Seanshire Cheshire S78 7TA,Mon
Dr. Jacob Taylor,852,8 Gill gardens Carolinemouth Antrim S7 4NF,Thu
Allan Reeves-Green,853,2 Alexander circles North Barbara Dunbartonshire IG4 3ZZ,Wed
Carl Patel,854,9 Antony ford Trevormouth Zetland M1 6LS,Thu
Andrea Hewitt,855,Studio 00T Alexander island Lake Henryview Dumfriesshire SM90 5QA,Thu
Victoria Harrison,856,362 Elliott roads South George Kirkcudbrightshire GU1 4LA,Thu
Dr. Scott Ferguson,857,5 Bentley summit North Georgia Bute IG89 6QF,Mon
Miss Jane Banks,858,7 Jones station Katefort Dumfriesshire PO4E 8YT,Thu
Ms. Rosie Smith,859,Studio 33 Sarah pines Daviesshire Lincolnshire S27 8AU,Mon
Dr. Michael Davies,860,Flat 12 Duncan squares Port Margaret Herefordshire TD73 9DS,Tue
Dr. Karen Peacock,861,Studio 82v Patricia summit Lake Lynnmouth Shetland E99 9EA,Mon
Miss Teresa Williams,862,50 Ellie river Marionville Hampshire CA2H 7FJ,Tue
Mohamed Parry,863,53 Thornton viaduct Lake Hilarybury Orkney W67 1AS,Mon
Derek Evans-Powell,864,77 Anne port Port Georgemouth Oxfordshire IV6V 4WU,Tue
Pamela Lowe,865,479 Sutton ridges West Valerie Kent G82 5WL,Wed
Aimee Smith,866,9 Jay turnpike North Cheryl Aberdeenshire M6J 3RD,Tue
Mitchell Peacock-Craig,867,Studio 29 Garner drives West Jodieberg East Lothian W46 3NX,Mon
Megan Dunn,868,90 Georgia freeway Phillipshaven Berwickshire SP6N 2ZJ,Mon
Charlene Watts-Spencer,869,Flat 26 Cheryl forks Blakebury Suffolk S6 5YB,Wed
Joanne Bryant-Davies,870,Flat 08Y Mandy station Grayville Oxfordshire DT0Y 2AN,Thu
Ann Robinson-Taylor,871,Studio 63 Lamb glens Brownburgh City of London W2 2ZS,Thu
Katie Ford,872,Flat 21V Osborne junctions Charlesland Londonderry TA7 9WY,Tue
Leigh Daniels,873,"632 Rachael oval New Wendy Yorkshire, East Riding S9 8AZ",Mon
Alexandra McCarthy-Clark,874,8 Lydia prairie South Tomhaven Midlothian G4A 8JE,Mon
Ms. Leah Newton,875,Studio 37A Moore crossing Websterland Herefordshire TN6 4YS,Thu
Mr. William Baldwin,876,Flat 7 Burke garden New Gracetown Herefordshire KW7 1YU,Tue
Dr. Leigh Dean,877,2 Elaine lights South Lucystad Oxfordshire W11 3DB,Wed
Dr. Naomi Smith,878,Flat 84z Oliver streets East Michael Derbyshire N6 0YD,Wed
Dr. Sean Gill,879,9 Joanne summit Georgeside Oxfordshire G9 2XN,Wed
Mrs. June Wright,880,Studio 17j Callum ferry Hughmouth Ayrshire HS77 3EX,Mon
Sandra Heath,881,689 Dodd orchard Hollyburgh City of Belfast CW49 3BP,Wed
Gail Roberts,882,Flat 2 Mark fords North Marilynmouth West Lothian E0 7GT,Wed
Frances Davies,883,Studio 2 Talbot route New Thomas Bedfordshire M9 7YH,Mon
Miss Louise Reid,884,7 Black islands Scottmouth Worcestershire OL3 5YF,Wed
Garry Patel,885,923 Barker groves Franklinstad Renfrewshire ST9H 9DR,Wed
Miss Pamela Watson,886,Studio 32w Damian underpass Gardnermouth Kincardineshire LA5 0ZG,Thu
Eileen Jones,887,Studio 9 Elliott expressway Karlton Dumfriesshire N44 7BU,Tue
Ms. Judith Roberts,888,Studio 26x Kennedy stream Jacobshire Ross & Cromarty N0S 0UN,Wed
Kevin Long,889,444 Hopkins drives New Julianside Somerset M3J 1WW,Mon
Ms. Melanie Dunn,890,"082 Barry ramp East Katestad Yorkshire, East Riding B3 5XS",Wed
Dr. Deborah Henderson,891,Studio 4 Smith falls Thomasville North Yorkshire W0 4LX,Tue
Abigail Sanders,892,7 Abbie neck Lake Marcusburgh Dumfriesshire N4 6XY,Tue
Benjamin Evans,893,Studio 14s Bryant path Hazelmouth City of Bristol LE09 7HR,Tue
Owen Smith,894,9 Whitehouse park West Rebeccaton Surrey ML3E 3UH,Mon
Mrs. Margaret Jenkins,895,57 Sian estates Hopkinsport Kinross-shire SW5 5WW,Wed
Dr. Patrick O'Neill,896,2 Bailey forest Edwardtown Londonderry E0 8TQ,Tue
Carolyn Smith,897,Flat 4 Hobbs land Charlieview Devon L1 3HA,Tue
Gordon Kelly,898,357 Darren road Port Bradleyville Somerset N6F 5LG,Thu
Raymond Day,899,995 Dunn underpass Iainchester West Lothian G6D 9SR,Mon
Oliver Smith,900,5 Woodward hill Claireport City of Belfast BB9E 2PH,Thu
Nicola Rose,901,Flat 3 Ball vista Oliverland Angus HA3H 0BR,Mon
Mr. Bernard Marsh,902,Studio 5 Bowen pines Lake Marion West Yorkshire L2 9WD,Wed
Eric Foster,903,4 Duncan green Danielsmouth Moray M5 1XA,Wed
Mathew Cook,904,95 Lucy key Graememouth City of Belfast SL0 0UN,Wed
Susan Smart,905,Flat 33u Booth cape South Kevin Gloucestershire W5E 6UY,Thu
Bryan Charlton-Bond,906,376 Sara forest Bowenton Worcestershire NE9 7XY,Wed
Arthur Cook,907,02 Grant common Port Dominic Lanarkshire E2D 2QD,Mon
Dr. Brandon Ashton,908,55 Jason mountains Nicoleside Bute PL5R 9ZR,Wed
Marie Power,909,Studio 52A Julian ridges South Angelaville Clackmannanshire KY84 0TD,Thu
Danielle King,910,5 Leanne unions Barryfurt Norfolk L7S 7WG,Mon
Bradley Hughes,911,243 Andrea passage South Nigelshire Greater London L90 3DJ,Wed
Ms. Cheryl Young,912,Studio 39 Hodgson stravenue North Hazel Tyne and Wear CV6W 5LE,Wed
Robert Williams,913,Flat 8 Janet walk New Molly Caithness E16 4NA,Wed
Dr. Carly Smith,914,"Flat 1 Clarke lane West Gracetown Yorkshire, East Riding TD52 3SP",Wed
Jasmine O'Connor,915,Flat 47Z Preston prairie New Anne Inverness-shire SN3 3LA,Mon
Victor Porter,916,Studio 09 Wallis green Mathewside Kent S5F 9XL,Tue
Bryan Black-Baxter,917,Studio 65f Bernard haven Anthonyton Dumfriesshire DA0 4DD,Thu
Dr. Valerie Miles,918,1 Wright stravenue North Jacktown Somerset DL5 7DH,Thu
Dr. Donald Barker,919,4 Holt via Jeanmouth Northumberland HS38 6WD,Wed
Miss Naomi Phillips,920,77 Ashleigh view West Joshua Angus LA4M 4YF,Mon
Amy West,921,Studio 9 Freeman route Smithburgh City of Derry L5B 6NG,Wed
Christine Davies,922,Flat 62a Murphy stravenue New Josephinemouth Northumberland S5S 4WS,Tue
Mr. Bradley Humphries,923,40 Maureen springs South Mauriceshire Surrey HD0 5HT,Wed
Stuart Butler,924,Studio 8 Carole highway Murrayview Caithness L6 5HW,Mon
Mr. Frank Watts,925,Studio 4 Danny glen Barkershire Worcestershire N2 6GE,Thu
Linda Williams,926,6 Hughes forges East Kirsty Aberdeenshire LD39 9ZQ,Thu
Dr. Neil Hughes,927,Flat 29Q Parry heights Fletcherside Peeblesshire CH6 8ZF,Thu
Abbie Jones-Lewis,928,033 Shirley pike North Samshire Cornwall E9F 3EU,Tue
Kimberley Hill,929,Studio 71c Jordan groves North Abigailfort Cumbria N5 7US,Tue
Dr. Conor Hanson,930,241 Lewis hills Watsonfurt Fermanagh G58 5NT,Wed
Ms. Carole Mason,931,Flat 68g Burns stravenue Wrightport Greater Manchester SK1A 3TS,Tue
Philip Rogers,932,Flat 30V Collins loop Priceberg Oxfordshire M4 9EZ,Tue
Mr. Peter Wallace,933,89 Walker vista Abdulview Hampshire BA91 5FU,Wed
Samantha Khan,934,Studio 79 Ahmed canyon Wilsonberg Staffordshire E32 7NB,Mon
Christopher Chapman,935,993 Stewart ville West Rhys Londonderry SP6N 1WG,Wed
Jordan Walsh-Dawson,936,773 Kate island Smithtown Kent GL7B 5DE,Tue
Ms. Kirsty Kerr,937,50 Rosemary prairie Port Joseph Dumfriesshire CO3B 2LA,Thu
Mr. Craig Kirk,938,10 Bond estates Holthaven West Sussex B4K 9DY,Thu
Mr. John Murphy,939,Studio 56 Gemma burg Jamesstad Cambridgeshire DG2A 8HB,Thu
Charles Fowler-Morris,940,739 Jessica haven Cooperton North Yorkshire FY5X 4QX,Tue
Gerald Webb,941,46 Clark point Port Hollyside Wiltshire UB3 9FE,Thu
Marilyn White,942,Flat 20 Hicks drives East Michaelfort Inverness-shire NW56 6UJ,Tue
Dr. Vincent Adams,943,Studio 3 Jemma port Clareborough Orkney W1A 5BJ,Thu
Mrs. Beverley Brooks,944,775 Sam prairie Watsonport Lancashire W1H 7PE,Wed
Jean Higgins,945,563 Nathan canyon Coxview South Yorkshire G16 4JY,Mon
Shannon Johnson,946,4 Sophie route Kyleshire Northamptonshire HU9 6ZE,Mon
Dr. Jeffrey Carter,947,Flat 20J Bruce fall Gemmaview Staffordshire BD66 8LE,Wed
Harry Miller,948,Flat 93s Reece green Warrenbury Renfrewshire SR8 6TX,Mon
Miss Brenda Doyle,949,Flat 71 Ben gateway Port Mathew Cheshire HA5H 6EJ,Wed
Teresa Adams,950,Studio 41 Karen shore Port Hugh Clackmannanshire N4 0DE,Wed
Mr. Edward Sheppard,951,Studio 87 Justin highway Lake Geoffreyside East Lothian CM09 5XX,Thu
Mr. Antony Burns,952,8 Black fords Bentleyhaven West Lothian HX0W 0LS,Wed
Dr. Abdul Turner,953,53 Lee pine North Heather Orkney W59 0EH,Wed
Cameron Short-Cooper,954,Studio 7 Turner crescent Lake Angela County Durham WA6 0RL,Thu
Josephine Thompson,955,78 Wood garden Byrneside Leicestershire S04 8PD,Tue
Eric Jones,956,4 Berry forge Lake Stephanie Isle of Wight E5 5PQ,Mon
Claire Potter,957,69 Walker shoal West Sandrafort West Yorkshire E7 6FL,Wed
Dr. Scott Metcalfe,958,1 Abigail keys Phillipborough Norfolk L19 0HJ,Tue
Jenna Barrett,959,Flat 5 Andrew rapid North Debraborough County Durham W78 1QH,Wed
Miss Brenda Pearson,960,209 Thomas turnpike West Stevenmouth Moray W2K 5QD,Wed
Mr. James Powell,961,399 Hill common Gilesmouth Surrey PE6V 2HZ,Tue
Marc Kay,962,247 Lauren heights Lukeborough West Sussex E1T 4AF,Tue
Dr. Max Atkins,963,168 Pugh drive Abbieborough Gloucestershire AB3A 9SQ,Thu
Dr. Hollie Powell,964,Flat 2 Goodwin underpass Williamsview Berwickshire M3H 8LN,Mon
Robert Lee,965,Studio 3 Marion parks New Sophieport Staffordshire DY78 5RH,Wed
Janet French-Woodward,966,57 Reed skyway Morganborough Armagh WS6 4RB,Mon
Craig Morgan,967,92 Eric pines Port Holly Cornwall DA7 6FT,Tue
Mr. Karl Griffin,968,Flat 84 Rose courts Kerryhaven Berkshire KW4 7NQ,Thu
Abdul Iqbal,969,Flat 01 Taylor haven Port Carolside Suffolk NN95 5FL,Wed
Lynn Simpson,970,366 Morris harbors East Marcushaven Devon W2D 8TA,Tue
Joseph Ellis,971,Flat 90 Elizabeth ridge Wilkinsonborough Kincardineshire SA85 0JE,Thu
Ms. Aimee Taylor,972,213 Barry neck West Sharon Peeblesshire LE9 2QL,Thu
Leslie Bentley,973,678 McCarthy stream New Beth Devon NN9 3AB,Thu
Bradley Scott,974,80 Clifford hills Wilsonmouth South Yorkshire N6W 7LQ,Thu
Mr. Kieran Richardson,975,939 Robertson burg West Dannyshire Greater London S5 2RG,Thu
Dr. Janice Davison,976,167 Toby highway Nathanhaven Surrey LN7 0EP,Thu
Joshua Parsons-Chambers,977,Flat 40X Toby valley South Lukestad Argyll G7 8HE,Mon
Ms. Katy Williams,978,4 Francis brook West Ian Buckinghamshire WD3 8JN,Thu
Harriet Thomas,979,Flat 93 Natalie flat Lake Shannonshire East Sussex S89 9ZN,Thu
June Williams,980,"888 Dean via Lake Elaine Yorkshire, East Riding M2F 2PN",Thu
Miss Sally Bell,981,Flat 24 Charlton divide North Henry Hertfordshire B3 6HH,Tue
Miss Geraldine Norman,982,86 Hilary drive Cliffordmouth Wiltshire W8 6UQ,Wed
Leon Taylor,983,7 Moore valleys Smithtown Down BT0 5RD,Wed
Alison Bailey,984,4 Shaun shore Deanland West Lothian SN0 0JY,Thu
Elliott Turner-Clarke,985,47 Lesley causeway Prestonmouth Nairnshire S9 4EP,Thu
Alexander Cox,986,Flat 30y Anderson ports Geoffreyside North Yorkshire LU27 5SH,Tue
Colin Rogers,987,26 Maureen lane East Antonyfort Somerset W8B 7TJ,Tue
Billy Barber,988,Flat 53E Stewart isle East Beverleyfurt Lanarkshire M98 3ZL,Thu
Hannah Macdonald-Thomas,989,Studio 68K Melanie greens South Hannahland Tyne and Wear FY3 9WT,Mon
Alison Morgan,990,64 Jodie viaduct Leonville Stirlingshire E3W 1UW,Mon
Ms. Deborah Moore,991,6 Hardy ridge Batesshire Shetland WA42 5YG,Wed
Victor Hart,992,Flat 24 Emily ville Jonesburgh Antrim B9 1TA,Wed
Mrs. Anne King,993,787 Middleton drives Lake Mandyfort Somerset DT99 6PD,Mon
Dr. Leslie Lawrence,994,Studio 6 Gillian lake Ashleighbury Tyne and Wear NW9X 9NN,Tue
Rosie Rahman,995,869 Judith points Taylorfort Surrey SY8E 3BQ,Wed
Miss Elizabeth Barrett,996,187 John gateway Port Pamelamouth Nottinghamshire E6 2ZX,Wed
Vanessa Miller,997,5 Karl mountains North Michaelborough Nottinghamshire L9W 7XU,Tue
Max Cooke-Payne,998,650 Hewitt pike Louischester Wiltshire SM57 5NA,Mon
Heather Ross,999,Flat 9 Jacqueline plain North Matthew Down L09 2QR,Mon
Adam Wallis,1000,38 Jones flats Harrietton Wiltshire S3 5GW,Wed
